message;severity;node;stamp;topics;location
"Oh no! I hit the wall! (Clamping from [x=-0,003785, y=6,828514])";"4";"/turtlesim2/sim";"1665521051.051870598";"/rosout,/turtlesim2/turtle1/color_sensor,/turtlesim2/turtle1/pose";"/tmp/binarydeb/ros-melodic-turtlesim-0.9.3/src/turtle.cpp:Turtle::update:169"
"Oh no! I hit the wall! (Clamping from [x=-0,006747, y=6,616675])";"4";"/turtlesim3/sim";"1665521050.988995465";"/rosout,/turtlesim3/turtle1/color_sensor,/turtlesim3/turtle1/pose";"/tmp/binarydeb/ros-melodic-turtlesim-0.9.3/src/turtle.cpp:Turtle::update:169"
"Oh no! I hit the wall! (Clamping from [x=-0,022166, y=5,578087])";"4";"/turtlesim3/sim";"1665521051.709553733";"/rosout,/turtlesim3/turtle1/color_sensor,/turtlesim3/turtle1/pose";"/tmp/binarydeb/ros-melodic-turtlesim-0.9.3/src/turtle.cpp:Turtle::update:169"
"Oh no! I hit the wall! (Clamping from [x=-0,022166, y=5,601167])";"4";"/turtlesim3/sim";"1665521051.692482043";"/rosout,/turtlesim3/turtle1/color_sensor,/turtlesim3/turtle1/pose";"/tmp/binarydeb/ros-melodic-turtlesim-0.9.3/src/turtle.cpp:Turtle::update:169"
"Oh no! I hit the wall! (Clamping from [x=-0,022166, y=5,624247])";"4";"/turtlesim3/sim";"1665521051.677180689";"/rosout,/turtlesim3/turtle1/color_sensor,/turtlesim3/turtle1/pose";"/tmp/binarydeb/ros-melodic-turtlesim-0.9.3/src/turtle.cpp:Turtle::update:169"
"Oh no! I hit the wall! (Clamping from [x=-0,022166, y=5,647326])";"4";"/turtlesim3/sim";"1665521051.661921624";"/rosout,/turtlesim3/turtle1/color_sensor,/turtlesim3/turtle1/pose";"/tmp/binarydeb/ros-melodic-turtlesim-0.9.3/src/turtle.cpp:Turtle::update:169"
"Oh no! I hit the wall! (Clamping from [x=-0,022166, y=5,670406])";"4";"/turtlesim3/sim";"1665521051.644141508";"/rosout,/turtlesim3/turtle1/color_sensor,/turtlesim3/turtle1/pose";"/tmp/binarydeb/ros-melodic-turtlesim-0.9.3/src/turtle.cpp:Turtle::update:169"
"Oh no! I hit the wall! (Clamping from [x=-0,022166, y=5,693486])";"4";"/turtlesim3/sim";"1665521051.629150385";"/rosout,/turtlesim3/turtle1/color_sensor,/turtlesim3/turtle1/pose";"/tmp/binarydeb/ros-melodic-turtlesim-0.9.3/src/turtle.cpp:Turtle::update:169"
"Oh no! I hit the wall! (Clamping from [x=-0,022166, y=5,716565])";"4";"/turtlesim3/sim";"1665521051.612817078";"/rosout,/turtlesim3/turtle1/color_sensor,/turtlesim3/turtle1/pose";"/tmp/binarydeb/ros-melodic-turtlesim-0.9.3/src/turtle.cpp:Turtle::update:169"
"Oh no! I hit the wall! (Clamping from [x=-0,022166, y=5,739645])";"4";"/turtlesim3/sim";"1665521051.597267419";"/rosout,/turtlesim3/turtle1/color_sensor,/turtlesim3/turtle1/pose";"/tmp/binarydeb/ros-melodic-turtlesim-0.9.3/src/turtle.cpp:Turtle::update:169"
"Oh no! I hit the wall! (Clamping from [x=-0,022166, y=5,762725])";"4";"/turtlesim3/sim";"1665521051.580660089";"/rosout,/turtlesim3/turtle1/color_sensor,/turtlesim3/turtle1/pose";"/tmp/binarydeb/ros-melodic-turtlesim-0.9.3/src/turtle.cpp:Turtle::update:169"
"Oh no! I hit the wall! (Clamping from [x=-0,022166, y=5,785805])";"4";"/turtlesim3/sim";"1665521051.566803881";"/rosout,/turtlesim3/turtle1/color_sensor,/turtlesim3/turtle1/pose";"/tmp/binarydeb/ros-melodic-turtlesim-0.9.3/src/turtle.cpp:Turtle::update:169"
"Oh no! I hit the wall! (Clamping from [x=-0,022166, y=5,808884])";"4";"/turtlesim3/sim";"1665521051.550705094";"/rosout,/turtlesim3/turtle1/color_sensor,/turtlesim3/turtle1/pose";"/tmp/binarydeb/ros-melodic-turtlesim-0.9.3/src/turtle.cpp:Turtle::update:169"
"Oh no! I hit the wall! (Clamping from [x=-0,022166, y=5,831964])";"4";"/turtlesim3/sim";"1665521051.532942220";"/rosout,/turtlesim3/turtle1/color_sensor,/turtlesim3/turtle1/pose";"/tmp/binarydeb/ros-melodic-turtlesim-0.9.3/src/turtle.cpp:Turtle::update:169"
"Oh no! I hit the wall! (Clamping from [x=-0,022166, y=5,855044])";"4";"/turtlesim3/sim";"1665521051.517223314";"/rosout,/turtlesim3/turtle1/color_sensor,/turtlesim3/turtle1/pose";"/tmp/binarydeb/ros-melodic-turtlesim-0.9.3/src/turtle.cpp:Turtle::update:169"
"Oh no! I hit the wall! (Clamping from [x=-0,022166, y=5,878123])";"4";"/turtlesim3/sim";"1665521051.501448934";"/rosout,/turtlesim3/turtle1/color_sensor,/turtlesim3/turtle1/pose";"/tmp/binarydeb/ros-melodic-turtlesim-0.9.3/src/turtle.cpp:Turtle::update:169"
"Oh no! I hit the wall! (Clamping from [x=-0,022166, y=5,901203])";"4";"/turtlesim3/sim";"1665521051.484119171";"/rosout,/turtlesim3/turtle1/color_sensor,/turtlesim3/turtle1/pose";"/tmp/binarydeb/ros-melodic-turtlesim-0.9.3/src/turtle.cpp:Turtle::update:169"
"Oh no! I hit the wall! (Clamping from [x=-0,022166, y=5,924283])";"4";"/turtlesim3/sim";"1665521051.471121801";"/rosout,/turtlesim3/turtle1/color_sensor,/turtlesim3/turtle1/pose";"/tmp/binarydeb/ros-melodic-turtlesim-0.9.3/src/turtle.cpp:Turtle::update:169"
"Oh no! I hit the wall! (Clamping from [x=-0,022166, y=5,947363])";"4";"/turtlesim3/sim";"1665521051.452871365";"/rosout,/turtlesim3/turtle1/color_sensor,/turtlesim3/turtle1/pose";"/tmp/binarydeb/ros-melodic-turtlesim-0.9.3/src/turtle.cpp:Turtle::update:169"
"Oh no! I hit the wall! (Clamping from [x=-0,022166, y=5,970442])";"4";"/turtlesim3/sim";"1665521051.439255487";"/rosout,/turtlesim3/turtle1/color_sensor,/turtlesim3/turtle1/pose";"/tmp/binarydeb/ros-melodic-turtlesim-0.9.3/src/turtle.cpp:Turtle::update:169"
"Oh no! I hit the wall! (Clamping from [x=-0,022166, y=5,993522])";"4";"/turtlesim3/sim";"1665521051.422884269";"/rosout,/turtlesim3/turtle1/color_sensor,/turtlesim3/turtle1/pose";"/tmp/binarydeb/ros-melodic-turtlesim-0.9.3/src/turtle.cpp:Turtle::update:169"
"Oh no! I hit the wall! (Clamping from [x=-0,022166, y=6,016602])";"4";"/turtlesim3/sim";"1665521051.404264902";"/rosout,/turtlesim3/turtle1/color_sensor,/turtlesim3/turtle1/pose";"/tmp/binarydeb/ros-melodic-turtlesim-0.9.3/src/turtle.cpp:Turtle::update:169"
"Oh no! I hit the wall! (Clamping from [x=-0,022166, y=6,039681])";"4";"/turtlesim3/sim";"1665521051.389789264";"/rosout,/turtlesim3/turtle1/color_sensor,/turtlesim3/turtle1/pose";"/tmp/binarydeb/ros-melodic-turtlesim-0.9.3/src/turtle.cpp:Turtle::update:169"
"Oh no! I hit the wall! (Clamping from [x=-0,022166, y=6,062761])";"4";"/turtlesim3/sim";"1665521051.372863658";"/rosout,/turtlesim3/turtle1/color_sensor,/turtlesim3/turtle1/pose";"/tmp/binarydeb/ros-melodic-turtlesim-0.9.3/src/turtle.cpp:Turtle::update:169"
"Oh no! I hit the wall! (Clamping from [x=-0,022166, y=6,085841])";"4";"/turtlesim3/sim";"1665521051.357535313";"/rosout,/turtlesim3/turtle1/color_sensor,/turtlesim3/turtle1/pose";"/tmp/binarydeb/ros-melodic-turtlesim-0.9.3/src/turtle.cpp:Turtle::update:169"
"Oh no! I hit the wall! (Clamping from [x=-0,022166, y=6,108921])";"4";"/turtlesim3/sim";"1665521051.342451326";"/rosout,/turtlesim3/turtle1/color_sensor,/turtlesim3/turtle1/pose";"/tmp/binarydeb/ros-melodic-turtlesim-0.9.3/src/turtle.cpp:Turtle::update:169"
"Oh no! I hit the wall! (Clamping from [x=-0,022166, y=6,132000])";"4";"/turtlesim3/sim";"1665521051.324832091";"/rosout,/turtlesim3/turtle1/color_sensor,/turtlesim3/turtle1/pose";"/tmp/binarydeb/ros-melodic-turtlesim-0.9.3/src/turtle.cpp:Turtle::update:169"
"Oh no! I hit the wall! (Clamping from [x=-0,022166, y=6,155080])";"4";"/turtlesim3/sim";"1665521051.309297771";"/rosout,/turtlesim3/turtle1/color_sensor,/turtlesim3/turtle1/pose";"/tmp/binarydeb/ros-melodic-turtlesim-0.9.3/src/turtle.cpp:Turtle::update:169"
"Oh no! I hit the wall! (Clamping from [x=-0,022166, y=6,178160])";"4";"/turtlesim3/sim";"1665521051.293463489";"/rosout,/turtlesim3/turtle1/color_sensor,/turtlesim3/turtle1/pose";"/tmp/binarydeb/ros-melodic-turtlesim-0.9.3/src/turtle.cpp:Turtle::update:169"
"Oh no! I hit the wall! (Clamping from [x=-0,022166, y=6,201240])";"4";"/turtlesim3/sim";"1665521051.276295188";"/rosout,/turtlesim3/turtle1/color_sensor,/turtlesim3/turtle1/pose";"/tmp/binarydeb/ros-melodic-turtlesim-0.9.3/src/turtle.cpp:Turtle::update:169"
"Oh no! I hit the wall! (Clamping from [x=-0,022166, y=6,224319])";"4";"/turtlesim3/sim";"1665521051.262202989";"/rosout,/turtlesim3/turtle1/color_sensor,/turtlesim3/turtle1/pose";"/tmp/binarydeb/ros-melodic-turtlesim-0.9.3/src/turtle.cpp:Turtle::update:169"
"Oh no! I hit the wall! (Clamping from [x=-0,022166, y=6,247399])";"4";"/turtlesim3/sim";"1665521051.246043758";"/rosout,/turtlesim3/turtle1/color_sensor,/turtlesim3/turtle1/pose";"/tmp/binarydeb/ros-melodic-turtlesim-0.9.3/src/turtle.cpp:Turtle::update:169"
"Oh no! I hit the wall! (Clamping from [x=-0,022166, y=6,270479])";"4";"/turtlesim3/sim";"1665521051.228784868";"/rosout,/turtlesim3/turtle1/color_sensor,/turtlesim3/turtle1/pose";"/tmp/binarydeb/ros-melodic-turtlesim-0.9.3/src/turtle.cpp:Turtle::update:169"
"Oh no! I hit the wall! (Clamping from [x=-0,022166, y=6,293558])";"4";"/turtlesim3/sim";"1665521051.213306222";"/rosout,/turtlesim3/turtle1/color_sensor,/turtlesim3/turtle1/pose";"/tmp/binarydeb/ros-melodic-turtlesim-0.9.3/src/turtle.cpp:Turtle::update:169"
"Oh no! I hit the wall! (Clamping from [x=-0,022166, y=6,316638])";"4";"/turtlesim3/sim";"1665521051.196338617";"/rosout,/turtlesim3/turtle1/color_sensor,/turtlesim3/turtle1/pose";"/tmp/binarydeb/ros-melodic-turtlesim-0.9.3/src/turtle.cpp:Turtle::update:169"
"Oh no! I hit the wall! (Clamping from [x=-0,022166, y=6,339718])";"4";"/turtlesim3/sim";"1665521051.181495631";"/rosout,/turtlesim3/turtle1/color_sensor,/turtlesim3/turtle1/pose";"/tmp/binarydeb/ros-melodic-turtlesim-0.9.3/src/turtle.cpp:Turtle::update:169"
"Oh no! I hit the wall! (Clamping from [x=-0,022166, y=6,362798])";"4";"/turtlesim3/sim";"1665521051.165930083";"/rosout,/turtlesim3/turtle1/color_sensor,/turtlesim3/turtle1/pose";"/tmp/binarydeb/ros-melodic-turtlesim-0.9.3/src/turtle.cpp:Turtle::update:169"
"Oh no! I hit the wall! (Clamping from [x=-0,022166, y=6,385877])";"4";"/turtlesim3/sim";"1665521051.148742115";"/rosout,/turtlesim3/turtle1/color_sensor,/turtlesim3/turtle1/pose";"/tmp/binarydeb/ros-melodic-turtlesim-0.9.3/src/turtle.cpp:Turtle::update:169"
"Oh no! I hit the wall! (Clamping from [x=-0,022166, y=6,408957])";"4";"/turtlesim3/sim";"1665521051.134021568";"/rosout,/turtlesim3/turtle1/color_sensor,/turtlesim3/turtle1/pose";"/tmp/binarydeb/ros-melodic-turtlesim-0.9.3/src/turtle.cpp:Turtle::update:169"
"Oh no! I hit the wall! (Clamping from [x=-0,022166, y=6,432037])";"4";"/turtlesim3/sim";"1665521051.116862045";"/rosout,/turtlesim3/turtle1/color_sensor,/turtlesim3/turtle1/pose";"/tmp/binarydeb/ros-melodic-turtlesim-0.9.3/src/turtle.cpp:Turtle::update:169"
"Oh no! I hit the wall! (Clamping from [x=-0,022166, y=6,455116])";"4";"/turtlesim3/sim";"1665521051.101672009";"/rosout,/turtlesim3/turtle1/color_sensor,/turtlesim3/turtle1/pose";"/tmp/binarydeb/ros-melodic-turtlesim-0.9.3/src/turtle.cpp:Turtle::update:169"
"Oh no! I hit the wall! (Clamping from [x=-0,022166, y=6,478196])";"4";"/turtlesim3/sim";"1665521051.085751005";"/rosout,/turtlesim3/turtle1/color_sensor,/turtlesim3/turtle1/pose";"/tmp/binarydeb/ros-melodic-turtlesim-0.9.3/src/turtle.cpp:Turtle::update:169"
"Oh no! I hit the wall! (Clamping from [x=-0,022166, y=6,501276])";"4";"/turtlesim3/sim";"1665521051.068747833";"/rosout,/turtlesim3/turtle1/color_sensor,/turtlesim3/turtle1/pose";"/tmp/binarydeb/ros-melodic-turtlesim-0.9.3/src/turtle.cpp:Turtle::update:169"
"Oh no! I hit the wall! (Clamping from [x=-0,022166, y=6,524356])";"4";"/turtlesim3/sim";"1665521051.052241433";"/rosout,/turtlesim3/turtle1/color_sensor,/turtlesim3/turtle1/pose";"/tmp/binarydeb/ros-melodic-turtlesim-0.9.3/src/turtle.cpp:Turtle::update:169"
"Oh no! I hit the wall! (Clamping from [x=-0,022166, y=6,547435])";"4";"/turtlesim3/sim";"1665521051.036518599";"/rosout,/turtlesim3/turtle1/color_sensor,/turtlesim3/turtle1/pose";"/tmp/binarydeb/ros-melodic-turtlesim-0.9.3/src/turtle.cpp:Turtle::update:169"
"Oh no! I hit the wall! (Clamping from [x=-0,022166, y=6,570515])";"4";"/turtlesim3/sim";"1665521051.021444972";"/rosout,/turtlesim3/turtle1/color_sensor,/turtlesim3/turtle1/pose";"/tmp/binarydeb/ros-melodic-turtlesim-0.9.3/src/turtle.cpp:Turtle::update:169"
"Oh no! I hit the wall! (Clamping from [x=-0,022166, y=6,593595])";"4";"/turtlesim3/sim";"1665521051.004708339";"/rosout,/turtlesim3/turtle1/color_sensor,/turtlesim3/turtle1/pose";"/tmp/binarydeb/ros-melodic-turtlesim-0.9.3/src/turtle.cpp:Turtle::update:169"
"Oh no! I hit the wall! (Clamping from [x=-0,023597, y=5,963921])";"4";"/turtlesim2/sim";"1665521051.691336258";"/rosout,/turtlesim2/turtle1/color_sensor,/turtlesim2/turtle1/pose";"/tmp/binarydeb/ros-melodic-turtlesim-0.9.3/src/turtle.cpp:Turtle::update:169"
"Oh no! I hit the wall! (Clamping from [x=-0,023597, y=5,985536])";"4";"/turtlesim2/sim";"1665521051.676749041";"/rosout,/turtlesim2/turtle1/color_sensor,/turtlesim2/turtle1/pose";"/tmp/binarydeb/ros-melodic-turtlesim-0.9.3/src/turtle.cpp:Turtle::update:169"
"Oh no! I hit the wall! (Clamping from [x=-0,023597, y=6,007151])";"4";"/turtlesim2/sim";"1665521051.660977185";"/rosout,/turtlesim2/turtle1/color_sensor,/turtlesim2/turtle1/pose";"/tmp/binarydeb/ros-melodic-turtlesim-0.9.3/src/turtle.cpp:Turtle::update:169"
"Oh no! I hit the wall! (Clamping from [x=-0,023597, y=6,028766])";"4";"/turtlesim2/sim";"1665521051.642972970";"/rosout,/turtlesim2/turtle1/color_sensor,/turtlesim2/turtle1/pose";"/tmp/binarydeb/ros-melodic-turtlesim-0.9.3/src/turtle.cpp:Turtle::update:169"
"Oh no! I hit the wall! (Clamping from [x=-0,023597, y=6,050381])";"4";"/turtlesim2/sim";"1665521051.628051898";"/rosout,/turtlesim2/turtle1/color_sensor,/turtlesim2/turtle1/pose";"/tmp/binarydeb/ros-melodic-turtlesim-0.9.3/src/turtle.cpp:Turtle::update:169"
"Oh no! I hit the wall! (Clamping from [x=-0,023597, y=6,071996])";"4";"/turtlesim2/sim";"1665521051.610956454";"/rosout,/turtlesim2/turtle1/color_sensor,/turtlesim2/turtle1/pose";"/tmp/binarydeb/ros-melodic-turtlesim-0.9.3/src/turtle.cpp:Turtle::update:169"
"Oh no! I hit the wall! (Clamping from [x=-0,023597, y=6,093610])";"4";"/turtlesim2/sim";"1665521051.596284478";"/rosout,/turtlesim2/turtle1/color_sensor,/turtlesim2/turtle1/pose";"/tmp/binarydeb/ros-melodic-turtlesim-0.9.3/src/turtle.cpp:Turtle::update:169"
"Oh no! I hit the wall! (Clamping from [x=-0,023597, y=6,115225])";"4";"/turtlesim2/sim";"1665521051.580659949";"/rosout,/turtlesim2/turtle1/color_sensor,/turtlesim2/turtle1/pose";"/tmp/binarydeb/ros-melodic-turtlesim-0.9.3/src/turtle.cpp:Turtle::update:169"
"Oh no! I hit the wall! (Clamping from [x=-0,023597, y=6,136840])";"4";"/turtlesim2/sim";"1665521051.563105215";"/rosout,/turtlesim2/turtle1/color_sensor,/turtlesim2/turtle1/pose";"/tmp/binarydeb/ros-melodic-turtlesim-0.9.3/src/turtle.cpp:Turtle::update:169"
"Oh no! I hit the wall! (Clamping from [x=-0,023597, y=6,158455])";"4";"/turtlesim2/sim";"1665521051.548284571";"/rosout,/turtlesim2/turtle1/color_sensor,/turtlesim2/turtle1/pose";"/tmp/binarydeb/ros-melodic-turtlesim-0.9.3/src/turtle.cpp:Turtle::update:169"
"Oh no! I hit the wall! (Clamping from [x=-0,023597, y=6,180070])";"4";"/turtlesim2/sim";"1665521051.530969967";"/rosout,/turtlesim2/turtle1/color_sensor,/turtlesim2/turtle1/pose";"/tmp/binarydeb/ros-melodic-turtlesim-0.9.3/src/turtle.cpp:Turtle::update:169"
"Oh no! I hit the wall! (Clamping from [x=-0,023597, y=6,201684])";"4";"/turtlesim2/sim";"1665521051.516681750";"/rosout,/turtlesim2/turtle1/color_sensor,/turtlesim2/turtle1/pose";"/tmp/binarydeb/ros-melodic-turtlesim-0.9.3/src/turtle.cpp:Turtle::update:169"
"Oh no! I hit the wall! (Clamping from [x=-0,023597, y=6,223299])";"4";"/turtlesim2/sim";"1665521051.501448754";"/rosout,/turtlesim2/turtle1/color_sensor,/turtlesim2/turtle1/pose";"/tmp/binarydeb/ros-melodic-turtlesim-0.9.3/src/turtle.cpp:Turtle::update:169"
"Oh no! I hit the wall! (Clamping from [x=-0,023597, y=6,244914])";"4";"/turtlesim2/sim";"1665521051.483216090";"/rosout,/turtlesim2/turtle1/color_sensor,/turtlesim2/turtle1/pose";"/tmp/binarydeb/ros-melodic-turtlesim-0.9.3/src/turtle.cpp:Turtle::update:169"
"Oh no! I hit the wall! (Clamping from [x=-0,023597, y=6,266529])";"4";"/turtlesim2/sim";"1665521051.467983575";"/rosout,/turtlesim2/turtle1/color_sensor,/turtlesim2/turtle1/pose";"/tmp/binarydeb/ros-melodic-turtlesim-0.9.3/src/turtle.cpp:Turtle::update:169"
"Oh no! I hit the wall! (Clamping from [x=-0,023597, y=6,288144])";"4";"/turtlesim2/sim";"1665521051.450966177";"/rosout,/turtlesim2/turtle1/color_sensor,/turtlesim2/turtle1/pose";"/tmp/binarydeb/ros-melodic-turtlesim-0.9.3/src/turtle.cpp:Turtle::update:169"
"Oh no! I hit the wall! (Clamping from [x=-0,023597, y=6,309759])";"4";"/turtlesim2/sim";"1665521051.439290172";"/rosout,/turtlesim2/turtle1/color_sensor,/turtlesim2/turtle1/pose";"/tmp/binarydeb/ros-melodic-turtlesim-0.9.3/src/turtle.cpp:Turtle::update:169"
"Oh no! I hit the wall! (Clamping from [x=-0,023597, y=6,331373])";"4";"/turtlesim2/sim";"1665521051.420094575";"/rosout,/turtlesim2/turtle1/color_sensor,/turtlesim2/turtle1/pose";"/tmp/binarydeb/ros-melodic-turtlesim-0.9.3/src/turtle.cpp:Turtle::update:169"
"Oh no! I hit the wall! (Clamping from [x=-0,023597, y=6,352988])";"4";"/turtlesim2/sim";"1665521051.403443513";"/rosout,/turtlesim2/turtle1/color_sensor,/turtlesim2/turtle1/pose";"/tmp/binarydeb/ros-melodic-turtlesim-0.9.3/src/turtle.cpp:Turtle::update:169"
"Oh no! I hit the wall! (Clamping from [x=-0,023597, y=6,374603])";"4";"/turtlesim2/sim";"1665521051.388887946";"/rosout,/turtlesim2/turtle1/color_sensor,/turtlesim2/turtle1/pose";"/tmp/binarydeb/ros-melodic-turtlesim-0.9.3/src/turtle.cpp:Turtle::update:169"
"Oh no! I hit the wall! (Clamping from [x=-0,023597, y=6,396218])";"4";"/turtlesim2/sim";"1665521051.370960143";"/rosout,/turtlesim2/turtle1/color_sensor,/turtlesim2/turtle1/pose";"/tmp/binarydeb/ros-melodic-turtlesim-0.9.3/src/turtle.cpp:Turtle::update:169"
"Oh no! I hit the wall! (Clamping from [x=-0,023597, y=6,417833])";"4";"/turtlesim2/sim";"1665521051.356350444";"/rosout,/turtlesim2/turtle1/color_sensor,/turtlesim2/turtle1/pose";"/tmp/binarydeb/ros-melodic-turtlesim-0.9.3/src/turtle.cpp:Turtle::update:169"
"Oh no! I hit the wall! (Clamping from [x=-0,023597, y=6,439448])";"4";"/turtlesim2/sim";"1665521051.339988404";"/rosout,/turtlesim2/turtle1/color_sensor,/turtlesim2/turtle1/pose";"/tmp/binarydeb/ros-melodic-turtlesim-0.9.3/src/turtle.cpp:Turtle::update:169"
"Oh no! I hit the wall! (Clamping from [x=-0,023597, y=6,461062])";"4";"/turtlesim2/sim";"1665521051.324829577";"/rosout,/turtlesim2/turtle1/color_sensor,/turtlesim2/turtle1/pose";"/tmp/binarydeb/ros-melodic-turtlesim-0.9.3/src/turtle.cpp:Turtle::update:169"
"Oh no! I hit the wall! (Clamping from [x=-0,023597, y=6,482677])";"4";"/turtlesim2/sim";"1665521051.308595766";"/rosout,/turtlesim2/turtle1/color_sensor,/turtlesim2/turtle1/pose";"/tmp/binarydeb/ros-melodic-turtlesim-0.9.3/src/turtle.cpp:Turtle::update:169"
"Oh no! I hit the wall! (Clamping from [x=-0,023597, y=6,504292])";"4";"/turtlesim2/sim";"1665521051.292996875";"/rosout,/turtlesim2/turtle1/color_sensor,/turtlesim2/turtle1/pose";"/tmp/binarydeb/ros-melodic-turtlesim-0.9.3/src/turtle.cpp:Turtle::update:169"
"Oh no! I hit the wall! (Clamping from [x=-0,023597, y=6,525907])";"4";"/turtlesim2/sim";"1665521051.275214204";"/rosout,/turtlesim2/turtle1/color_sensor,/turtlesim2/turtle1/pose";"/tmp/binarydeb/ros-melodic-turtlesim-0.9.3/src/turtle.cpp:Turtle::update:169"
"Oh no! I hit the wall! (Clamping from [x=-0,023597, y=6,547522])";"4";"/turtlesim2/sim";"1665521051.260145846";"/rosout,/turtlesim2/turtle1/color_sensor,/turtlesim2/turtle1/pose";"/tmp/binarydeb/ros-melodic-turtlesim-0.9.3/src/turtle.cpp:Turtle::update:169"
"Oh no! I hit the wall! (Clamping from [x=-0,023597, y=6,569136])";"4";"/turtlesim2/sim";"1665521051.246043898";"/rosout,/turtlesim2/turtle1/color_sensor,/turtlesim2/turtle1/pose";"/tmp/binarydeb/ros-melodic-turtlesim-0.9.3/src/turtle.cpp:Turtle::update:169"
"Oh no! I hit the wall! (Clamping from [x=-0,023597, y=6,590751])";"4";"/turtlesim2/sim";"1665521051.227853504";"/rosout,/turtlesim2/turtle1/color_sensor,/turtlesim2/turtle1/pose";"/tmp/binarydeb/ros-melodic-turtlesim-0.9.3/src/turtle.cpp:Turtle::update:169"
"Oh no! I hit the wall! (Clamping from [x=-0,023597, y=6,612366])";"4";"/turtlesim2/sim";"1665521051.212936219";"/rosout,/turtlesim2/turtle1/color_sensor,/turtlesim2/turtle1/pose";"/tmp/binarydeb/ros-melodic-turtlesim-0.9.3/src/turtle.cpp:Turtle::update:169"
"Oh no! I hit the wall! (Clamping from [x=-0,023597, y=6,633981])";"4";"/turtlesim2/sim";"1665521051.195389680";"/rosout,/turtlesim2/turtle1/color_sensor,/turtlesim2/turtle1/pose";"/tmp/binarydeb/ros-melodic-turtlesim-0.9.3/src/turtle.cpp:Turtle::update:169"
"Oh no! I hit the wall! (Clamping from [x=-0,023597, y=6,655596])";"4";"/turtlesim2/sim";"1665521051.181858691";"/rosout,/turtlesim2/turtle1/color_sensor,/turtlesim2/turtle1/pose";"/tmp/binarydeb/ros-melodic-turtlesim-0.9.3/src/turtle.cpp:Turtle::update:169"
"Oh no! I hit the wall! (Clamping from [x=-0,023597, y=6,677211])";"4";"/turtlesim2/sim";"1665521051.164578031";"/rosout,/turtlesim2/turtle1/color_sensor,/turtlesim2/turtle1/pose";"/tmp/binarydeb/ros-melodic-turtlesim-0.9.3/src/turtle.cpp:Turtle::update:169"
"Oh no! I hit the wall! (Clamping from [x=-0,023597, y=6,698825])";"4";"/turtlesim2/sim";"1665521051.147115830";"/rosout,/turtlesim2/turtle1/color_sensor,/turtlesim2/turtle1/pose";"/tmp/binarydeb/ros-melodic-turtlesim-0.9.3/src/turtle.cpp:Turtle::update:169"
"Oh no! I hit the wall! (Clamping from [x=-0,023597, y=6,720440])";"4";"/turtlesim2/sim";"1665521051.131990966";"/rosout,/turtlesim2/turtle1/color_sensor,/turtlesim2/turtle1/pose";"/tmp/binarydeb/ros-melodic-turtlesim-0.9.3/src/turtle.cpp:Turtle::update:169"
"Oh no! I hit the wall! (Clamping from [x=-0,023597, y=6,742055])";"4";"/turtlesim2/sim";"1665521051.115693777";"/rosout,/turtlesim2/turtle1/color_sensor,/turtlesim2/turtle1/pose";"/tmp/binarydeb/ros-melodic-turtlesim-0.9.3/src/turtle.cpp:Turtle::update:169"
"Oh no! I hit the wall! (Clamping from [x=-0,023597, y=6,763670])";"4";"/turtlesim2/sim";"1665521051.100891878";"/rosout,/turtlesim2/turtle1/color_sensor,/turtlesim2/turtle1/pose";"/tmp/binarydeb/ros-melodic-turtlesim-0.9.3/src/turtle.cpp:Turtle::update:169"
"Oh no! I hit the wall! (Clamping from [x=-0,023597, y=6,785285])";"4";"/turtlesim2/sim";"1665521051.084619506";"/rosout,/turtlesim2/turtle1/color_sensor,/turtlesim2/turtle1/pose";"/tmp/binarydeb/ros-melodic-turtlesim-0.9.3/src/turtle.cpp:Turtle::update:169"
"Oh no! I hit the wall! (Clamping from [x=-0,023597, y=6,806899])";"4";"/turtlesim2/sim";"1665521051.066758267";"/rosout,/turtlesim2/turtle1/color_sensor,/turtlesim2/turtle1/pose";"/tmp/binarydeb/ros-melodic-turtlesim-0.9.3/src/turtle.cpp:Turtle::update:169"
"Oh no! I hit the wall! (Clamping from [x=-0,031715, y=5,309565])";"4";"/turtlesim3/sim";"1665521053.181568941";"/rosout,/turtlesim3/turtle1/color_sensor,/turtlesim3/turtle1/pose";"/tmp/binarydeb/ros-melodic-turtlesim-0.9.3/src/turtle.cpp:Turtle::update:169"
"Oh no! I hit the wall! (Clamping from [x=-0,031715, y=5,313827])";"4";"/turtlesim3/sim";"1665521053.164649136";"/rosout,/turtlesim3/turtle1/color_sensor,/turtlesim3/turtle1/pose";"/tmp/binarydeb/ros-melodic-turtlesim-0.9.3/src/turtle.cpp:Turtle::update:169"
"Oh no! I hit the wall! (Clamping from [x=-0,031715, y=5,318089])";"4";"/turtlesim3/sim";"1665521053.149591238";"/rosout,/turtlesim3/turtle1/color_sensor,/turtlesim3/turtle1/pose";"/tmp/binarydeb/ros-melodic-turtlesim-0.9.3/src/turtle.cpp:Turtle::update:169"
"Oh no! I hit the wall! (Clamping from [x=-0,031715, y=5,322351])";"4";"/turtlesim3/sim";"1665521053.134044224";"/rosout,/turtlesim3/turtle1/color_sensor,/turtlesim3/turtle1/pose";"/tmp/binarydeb/ros-melodic-turtlesim-0.9.3/src/turtle.cpp:Turtle::update:169"
"Oh no! I hit the wall! (Clamping from [x=-0,031715, y=5,326614])";"4";"/turtlesim3/sim";"1665521053.116502263";"/rosout,/turtlesim3/turtle1/color_sensor,/turtlesim3/turtle1/pose";"/tmp/binarydeb/ros-melodic-turtlesim-0.9.3/src/turtle.cpp:Turtle::update:169"
"Oh no! I hit the wall! (Clamping from [x=-0,031715, y=5,330876])";"4";"/turtlesim3/sim";"1665521053.102192165";"/rosout,/turtlesim3/turtle1/color_sensor,/turtlesim3/turtle1/pose";"/tmp/binarydeb/ros-melodic-turtlesim-0.9.3/src/turtle.cpp:Turtle::update:169"
"Oh no! I hit the wall! (Clamping from [x=-0,031715, y=5,335138])";"4";"/turtlesim3/sim";"1665521053.084689850";"/rosout,/turtlesim3/turtle1/color_sensor,/turtlesim3/turtle1/pose";"/tmp/binarydeb/ros-melodic-turtlesim-0.9.3/src/turtle.cpp:Turtle::update:169"
"Oh no! I hit the wall! (Clamping from [x=-0,031715, y=5,339400])";"4";"/turtlesim3/sim";"1665521053.069929208";"/rosout,/turtlesim3/turtle1/color_sensor,/turtlesim3/turtle1/pose";"/tmp/binarydeb/ros-melodic-turtlesim-0.9.3/src/turtle.cpp:Turtle::update:169"
"Oh no! I hit the wall! (Clamping from [x=-0,031715, y=5,343663])";"4";"/turtlesim3/sim";"1665521053.053129989";"/rosout,/turtlesim3/turtle1/color_sensor,/turtlesim3/turtle1/pose";"/tmp/binarydeb/ros-melodic-turtlesim-0.9.3/src/turtle.cpp:Turtle::update:169"
"Oh no! I hit the wall! (Clamping from [x=-0,031715, y=5,347925])";"4";"/turtlesim3/sim";"1665521053.036722063";"/rosout,/turtlesim3/turtle1/color_sensor,/turtlesim3/turtle1/pose";"/tmp/binarydeb/ros-melodic-turtlesim-0.9.3/src/turtle.cpp:Turtle::update:169"
"Oh no! I hit the wall! (Clamping from [x=-0,031715, y=5,352187])";"4";"/turtlesim3/sim";"1665521053.020566038";"/rosout,/turtlesim3/turtle1/color_sensor,/turtlesim3/turtle1/pose";"/tmp/binarydeb/ros-melodic-turtlesim-0.9.3/src/turtle.cpp:Turtle::update:169"
"Oh no! I hit the wall! (Clamping from [x=-0,031715, y=5,356450])";"4";"/turtlesim3/sim";"1665521053.006134853";"/rosout,/turtlesim3/turtle1/color_sensor,/turtlesim3/turtle1/pose";"/tmp/binarydeb/ros-melodic-turtlesim-0.9.3/src/turtle.cpp:Turtle::update:169"
"Oh no! I hit the wall! (Clamping from [x=-0,031715, y=5,360712])";"4";"/turtlesim3/sim";"1665521052.990443559";"/rosout,/turtlesim3/turtle1/color_sensor,/turtlesim3/turtle1/pose";"/tmp/binarydeb/ros-melodic-turtlesim-0.9.3/src/turtle.cpp:Turtle::update:169"
"Oh no! I hit the wall! (Clamping from [x=-0,031715, y=5,364974])";"4";"/turtlesim3/sim";"1665521052.972736780";"/rosout,/turtlesim3/turtle1/color_sensor,/turtlesim3/turtle1/pose";"/tmp/binarydeb/ros-melodic-turtlesim-0.9.3/src/turtle.cpp:Turtle::update:169"
"Oh no! I hit the wall! (Clamping from [x=-0,031715, y=5,369236])";"4";"/turtlesim3/sim";"1665521052.957111199";"/rosout,/turtlesim3/turtle1/color_sensor,/turtlesim3/turtle1/pose";"/tmp/binarydeb/ros-melodic-turtlesim-0.9.3/src/turtle.cpp:Turtle::update:169"
"Oh no! I hit the wall! (Clamping from [x=-0,031715, y=5,373499])";"4";"/turtlesim3/sim";"1665521052.941925000";"/rosout,/turtlesim3/turtle1/color_sensor,/turtlesim3/turtle1/pose";"/tmp/binarydeb/ros-melodic-turtlesim-0.9.3/src/turtle.cpp:Turtle::update:169"
"Oh no! I hit the wall! (Clamping from [x=-0,031715, y=5,377761])";"4";"/turtlesim3/sim";"1665521052.925995510";"/rosout,/turtlesim3/turtle1/color_sensor,/turtlesim3/turtle1/pose";"/tmp/binarydeb/ros-melodic-turtlesim-0.9.3/src/turtle.cpp:Turtle::update:169"
"Oh no! I hit the wall! (Clamping from [x=-0,031715, y=5,382023])";"4";"/turtlesim3/sim";"1665521052.908608210";"/rosout,/turtlesim3/turtle1/color_sensor,/turtlesim3/turtle1/pose";"/tmp/binarydeb/ros-melodic-turtlesim-0.9.3/src/turtle.cpp:Turtle::update:169"
"Oh no! I hit the wall! (Clamping from [x=-0,031715, y=5,386285])";"4";"/turtlesim3/sim";"1665521052.892597698";"/rosout,/turtlesim3/turtle1/color_sensor,/turtlesim3/turtle1/pose";"/tmp/binarydeb/ros-melodic-turtlesim-0.9.3/src/turtle.cpp:Turtle::update:169"
"Oh no! I hit the wall! (Clamping from [x=-0,031715, y=5,390548])";"4";"/turtlesim3/sim";"1665521052.876202715";"/rosout,/turtlesim3/turtle1/color_sensor,/turtlesim3/turtle1/pose";"/tmp/binarydeb/ros-melodic-turtlesim-0.9.3/src/turtle.cpp:Turtle::update:169"
"Oh no! I hit the wall! (Clamping from [x=-0,031715, y=5,394810])";"4";"/turtlesim3/sim";"1665521052.863972262";"/rosout,/turtlesim3/turtle1/color_sensor,/turtlesim3/turtle1/pose";"/tmp/binarydeb/ros-melodic-turtlesim-0.9.3/src/turtle.cpp:Turtle::update:169"
"Oh no! I hit the wall! (Clamping from [x=-0,031715, y=5,399072])";"4";"/turtlesim3/sim";"1665521052.845608743";"/rosout,/turtlesim3/turtle1/color_sensor,/turtlesim3/turtle1/pose";"/tmp/binarydeb/ros-melodic-turtlesim-0.9.3/src/turtle.cpp:Turtle::update:169"
"Oh no! I hit the wall! (Clamping from [x=-0,031715, y=5,403334])";"4";"/turtlesim3/sim";"1665521052.828438028";"/rosout,/turtlesim3/turtle1/color_sensor,/turtlesim3/turtle1/pose";"/tmp/binarydeb/ros-melodic-turtlesim-0.9.3/src/turtle.cpp:Turtle::update:169"
"Oh no! I hit the wall! (Clamping from [x=-0,031715, y=5,407597])";"4";"/turtlesim3/sim";"1665521052.812727227";"/rosout,/turtlesim3/turtle1/color_sensor,/turtlesim3/turtle1/pose";"/tmp/binarydeb/ros-melodic-turtlesim-0.9.3/src/turtle.cpp:Turtle::update:169"
"Oh no! I hit the wall! (Clamping from [x=-0,031715, y=5,411859])";"4";"/turtlesim3/sim";"1665521052.796604074";"/rosout,/turtlesim3/turtle1/color_sensor,/turtlesim3/turtle1/pose";"/tmp/binarydeb/ros-melodic-turtlesim-0.9.3/src/turtle.cpp:Turtle::update:169"
"Oh no! I hit the wall! (Clamping from [x=-0,031715, y=5,416121])";"4";"/turtlesim3/sim";"1665521052.782328111";"/rosout,/turtlesim3/turtle1/color_sensor,/turtlesim3/turtle1/pose";"/tmp/binarydeb/ros-melodic-turtlesim-0.9.3/src/turtle.cpp:Turtle::update:169"
"Oh no! I hit the wall! (Clamping from [x=-0,031715, y=5,420383])";"4";"/turtlesim3/sim";"1665521052.765991778";"/rosout,/turtlesim3/turtle1/color_sensor,/turtlesim3/turtle1/pose";"/tmp/binarydeb/ros-melodic-turtlesim-0.9.3/src/turtle.cpp:Turtle::update:169"
"Oh no! I hit the wall! (Clamping from [x=-0,031715, y=5,424646])";"4";"/turtlesim3/sim";"1665521052.748152301";"/rosout,/turtlesim3/turtle1/color_sensor,/turtlesim3/turtle1/pose";"/tmp/binarydeb/ros-melodic-turtlesim-0.9.3/src/turtle.cpp:Turtle::update:169"
"Oh no! I hit the wall! (Clamping from [x=-0,031715, y=5,428908])";"4";"/turtlesim3/sim";"1665521052.736737385";"/rosout,/turtlesim3/turtle1/color_sensor,/turtlesim3/turtle1/pose";"/tmp/binarydeb/ros-melodic-turtlesim-0.9.3/src/turtle.cpp:Turtle::update:169"
"Oh no! I hit the wall! (Clamping from [x=-0,031715, y=5,433170])";"4";"/turtlesim3/sim";"1665521052.717925987";"/rosout,/turtlesim3/turtle1/color_sensor,/turtlesim3/turtle1/pose";"/tmp/binarydeb/ros-melodic-turtlesim-0.9.3/src/turtle.cpp:Turtle::update:169"
"Oh no! I hit the wall! (Clamping from [x=-0,031715, y=5,437432])";"4";"/turtlesim3/sim";"1665521052.700748149";"/rosout,/turtlesim3/turtle1/color_sensor,/turtlesim3/turtle1/pose";"/tmp/binarydeb/ros-melodic-turtlesim-0.9.3/src/turtle.cpp:Turtle::update:169"
"Oh no! I hit the wall! (Clamping from [x=-0,031715, y=5,441695])";"4";"/turtlesim3/sim";"1665521052.686746208";"/rosout,/turtlesim3/turtle1/color_sensor,/turtlesim3/turtle1/pose";"/tmp/binarydeb/ros-melodic-turtlesim-0.9.3/src/turtle.cpp:Turtle::update:169"
"Oh no! I hit the wall! (Clamping from [x=-0,031715, y=5,445957])";"4";"/turtlesim3/sim";"1665521052.668959089";"/rosout,/turtlesim3/turtle1/color_sensor,/turtlesim3/turtle1/pose";"/tmp/binarydeb/ros-melodic-turtlesim-0.9.3/src/turtle.cpp:Turtle::update:169"
"Oh no! I hit the wall! (Clamping from [x=-0,031715, y=5,450219])";"4";"/turtlesim3/sim";"1665521052.654433457";"/rosout,/turtlesim3/turtle1/color_sensor,/turtlesim3/turtle1/pose";"/tmp/binarydeb/ros-melodic-turtlesim-0.9.3/src/turtle.cpp:Turtle::update:169"
"Oh no! I hit the wall! (Clamping from [x=-0,031715, y=5,454482])";"4";"/turtlesim3/sim";"1665521052.637065213";"/rosout,/turtlesim3/turtle1/color_sensor,/turtlesim3/turtle1/pose";"/tmp/binarydeb/ros-melodic-turtlesim-0.9.3/src/turtle.cpp:Turtle::update:169"
"Oh no! I hit the wall! (Clamping from [x=-0,031715, y=5,458744])";"4";"/turtlesim3/sim";"1665521052.620138305";"/rosout,/turtlesim3/turtle1/color_sensor,/turtlesim3/turtle1/pose";"/tmp/binarydeb/ros-melodic-turtlesim-0.9.3/src/turtle.cpp:Turtle::update:169"
"Oh no! I hit the wall! (Clamping from [x=-0,031715, y=5,463006])";"4";"/turtlesim3/sim";"1665521052.604189448";"/rosout,/turtlesim3/turtle1/color_sensor,/turtlesim3/turtle1/pose";"/tmp/binarydeb/ros-melodic-turtlesim-0.9.3/src/turtle.cpp:Turtle::update:169"
"Oh no! I hit the wall! (Clamping from [x=-0,031715, y=5,467268])";"4";"/turtlesim3/sim";"1665521052.589259890";"/rosout,/turtlesim3/turtle1/color_sensor,/turtlesim3/turtle1/pose";"/tmp/binarydeb/ros-melodic-turtlesim-0.9.3/src/turtle.cpp:Turtle::update:169"
"Oh no! I hit the wall! (Clamping from [x=-0,031715, y=5,471531])";"4";"/turtlesim3/sim";"1665521052.573381856";"/rosout,/turtlesim3/turtle1/color_sensor,/turtlesim3/turtle1/pose";"/tmp/binarydeb/ros-melodic-turtlesim-0.9.3/src/turtle.cpp:Turtle::update:169"
"Oh no! I hit the wall! (Clamping from [x=-0,031715, y=5,475793])";"4";"/turtlesim3/sim";"1665521052.556474745";"/rosout,/turtlesim3/turtle1/color_sensor,/turtlesim3/turtle1/pose";"/tmp/binarydeb/ros-melodic-turtlesim-0.9.3/src/turtle.cpp:Turtle::update:169"
"Oh no! I hit the wall! (Clamping from [x=-0,031715, y=5,480055])";"4";"/turtlesim3/sim";"1665521052.540755648";"/rosout,/turtlesim3/turtle1/color_sensor,/turtlesim3/turtle1/pose";"/tmp/binarydeb/ros-melodic-turtlesim-0.9.3/src/turtle.cpp:Turtle::update:169"
"Oh no! I hit the wall! (Clamping from [x=-0,031715, y=5,484317])";"4";"/turtlesim3/sim";"1665521052.526515451";"/rosout,/turtlesim3/turtle1/color_sensor,/turtlesim3/turtle1/pose";"/tmp/binarydeb/ros-melodic-turtlesim-0.9.3/src/turtle.cpp:Turtle::update:169"
"Oh no! I hit the wall! (Clamping from [x=-0,031715, y=5,488580])";"4";"/turtlesim3/sim";"1665521052.508975625";"/rosout,/turtlesim3/turtle1/color_sensor,/turtlesim3/turtle1/pose";"/tmp/binarydeb/ros-melodic-turtlesim-0.9.3/src/turtle.cpp:Turtle::update:169"
"Oh no! I hit the wall! (Clamping from [x=-0,031715, y=5,492842])";"4";"/turtlesim3/sim";"1665521052.491951885";"/rosout,/turtlesim3/turtle1/color_sensor,/turtlesim3/turtle1/pose";"/tmp/binarydeb/ros-melodic-turtlesim-0.9.3/src/turtle.cpp:Turtle::update:169"
"Oh no! I hit the wall! (Clamping from [x=-0,031715, y=5,497104])";"4";"/turtlesim3/sim";"1665521052.476926889";"/rosout,/turtlesim3/turtle1/color_sensor,/turtlesim3/turtle1/pose";"/tmp/binarydeb/ros-melodic-turtlesim-0.9.3/src/turtle.cpp:Turtle::update:169"
"Oh no! I hit the wall! (Clamping from [x=-0,031715, y=5,501366])";"4";"/turtlesim3/sim";"1665521052.460399479";"/rosout,/turtlesim3/turtle1/color_sensor,/turtlesim3/turtle1/pose";"/tmp/binarydeb/ros-melodic-turtlesim-0.9.3/src/turtle.cpp:Turtle::update:169"
"Oh no! I hit the wall! (Clamping from [x=-0,031715, y=5,505629])";"4";"/turtlesim3/sim";"1665521052.444436546";"/rosout,/turtlesim3/turtle1/color_sensor,/turtlesim3/turtle1/pose";"/tmp/binarydeb/ros-melodic-turtlesim-0.9.3/src/turtle.cpp:Turtle::update:169"
"Oh no! I hit the wall! (Clamping from [x=-0,031715, y=5,509891])";"4";"/turtlesim3/sim";"1665521052.429933396";"/rosout,/turtlesim3/turtle1/color_sensor,/turtlesim3/turtle1/pose";"/tmp/binarydeb/ros-melodic-turtlesim-0.9.3/src/turtle.cpp:Turtle::update:169"
"Oh no! I hit the wall! (Clamping from [x=-0,031715, y=5,514153])";"4";"/turtlesim3/sim";"1665521052.414208318";"/rosout,/turtlesim3/turtle1/color_sensor,/turtlesim3/turtle1/pose";"/tmp/binarydeb/ros-melodic-turtlesim-0.9.3/src/turtle.cpp:Turtle::update:169"
"Oh no! I hit the wall! (Clamping from [x=-0,031715, y=5,518415])";"4";"/turtlesim3/sim";"1665521052.396831057";"/rosout,/turtlesim3/turtle1/color_sensor,/turtlesim3/turtle1/pose";"/tmp/binarydeb/ros-melodic-turtlesim-0.9.3/src/turtle.cpp:Turtle::update:169"
"Oh no! I hit the wall! (Clamping from [x=-0,031715, y=5,522678])";"4";"/turtlesim3/sim";"1665521052.381527859";"/rosout,/turtlesim3/turtle1/color_sensor,/turtlesim3/turtle1/pose";"/tmp/binarydeb/ros-melodic-turtlesim-0.9.3/src/turtle.cpp:Turtle::update:169"
"Oh no! I hit the wall! (Clamping from [x=-0,031715, y=5,526940])";"4";"/turtlesim3/sim";"1665521052.365884835";"/rosout,/turtlesim3/turtle1/color_sensor,/turtlesim3/turtle1/pose";"/tmp/binarydeb/ros-melodic-turtlesim-0.9.3/src/turtle.cpp:Turtle::update:169"
"Oh no! I hit the wall! (Clamping from [x=-0,031715, y=5,531202])";"4";"/turtlesim3/sim";"1665521052.348348225";"/rosout,/turtlesim3/turtle1/color_sensor,/turtlesim3/turtle1/pose";"/tmp/binarydeb/ros-melodic-turtlesim-0.9.3/src/turtle.cpp:Turtle::update:169"
"Oh no! I hit the wall! (Clamping from [x=-0,031715, y=5,535464])";"4";"/turtlesim3/sim";"1665521052.333584458";"/rosout,/turtlesim3/turtle1/color_sensor,/turtlesim3/turtle1/pose";"/tmp/binarydeb/ros-melodic-turtlesim-0.9.3/src/turtle.cpp:Turtle::update:169"
"Oh no! I hit the wall! (Clamping from [x=-0,031715, y=5,539727])";"4";"/turtlesim3/sim";"1665521052.316469597";"/rosout,/turtlesim3/turtle1/color_sensor,/turtlesim3/turtle1/pose";"/tmp/binarydeb/ros-melodic-turtlesim-0.9.3/src/turtle.cpp:Turtle::update:169"
"Oh no! I hit the wall! (Clamping from [x=-0,031715, y=5,543989])";"4";"/turtlesim3/sim";"1665521052.302188784";"/rosout,/turtlesim3/turtle1/color_sensor,/turtlesim3/turtle1/pose";"/tmp/binarydeb/ros-melodic-turtlesim-0.9.3/src/turtle.cpp:Turtle::update:169"
"Oh no! I hit the wall! (Clamping from [x=-0,031715, y=5,548251])";"4";"/turtlesim3/sim";"1665521052.286153826";"/rosout,/turtlesim3/turtle1/color_sensor,/turtlesim3/turtle1/pose";"/tmp/binarydeb/ros-melodic-turtlesim-0.9.3/src/turtle.cpp:Turtle::update:169"
"Oh no! I hit the wall! (Clamping from [x=-0,031715, y=5,552513])";"4";"/turtlesim3/sim";"1665521052.269094330";"/rosout,/turtlesim3/turtle1/color_sensor,/turtlesim3/turtle1/pose";"/tmp/binarydeb/ros-melodic-turtlesim-0.9.3/src/turtle.cpp:Turtle::update:169"
"Oh no! I hit the wall! (Clamping from [x=-0,031715, y=5,556776])";"4";"/turtlesim3/sim";"1665521052.252293438";"/rosout,/turtlesim3/turtle1/color_sensor,/turtlesim3/turtle1/pose";"/tmp/binarydeb/ros-melodic-turtlesim-0.9.3/src/turtle.cpp:Turtle::update:169"
"Oh no! I hit the wall! (Clamping from [x=-0,031715, y=5,561038])";"4";"/turtlesim3/sim";"1665521052.236456310";"/rosout,/turtlesim3/turtle1/color_sensor,/turtlesim3/turtle1/pose";"/tmp/binarydeb/ros-melodic-turtlesim-0.9.3/src/turtle.cpp:Turtle::update:169"
"Oh no! I hit the wall! (Clamping from [x=-0,031715, y=5,565300])";"4";"/turtlesim3/sim";"1665521052.220465465";"/rosout,/turtlesim3/turtle1/color_sensor,/turtlesim3/turtle1/pose";"/tmp/binarydeb/ros-melodic-turtlesim-0.9.3/src/turtle.cpp:Turtle::update:169"
"Oh no! I hit the wall! (Clamping from [x=-0,031715, y=5,569563])";"4";"/turtlesim3/sim";"1665521052.205425320";"/rosout,/turtlesim3/turtle1/color_sensor,/turtlesim3/turtle1/pose";"/tmp/binarydeb/ros-melodic-turtlesim-0.9.3/src/turtle.cpp:Turtle::update:169"
"Oh no! I hit the wall! (Clamping from [x=-0,031715, y=5,573825])";"4";"/turtlesim3/sim";"1665521052.188181438";"/rosout,/turtlesim3/turtle1/color_sensor,/turtlesim3/turtle1/pose";"/tmp/binarydeb/ros-melodic-turtlesim-0.9.3/src/turtle.cpp:Turtle::update:169"
"Oh no! I hit the wall! (Clamping from [x=-0,031835, y=5,759463])";"4";"/turtlesim2/sim";"1665521053.163567851";"/rosout,/turtlesim2/turtle1/color_sensor,/turtlesim2/turtle1/pose";"/tmp/binarydeb/ros-melodic-turtlesim-0.9.3/src/turtle.cpp:Turtle::update:169"
"Oh no! I hit the wall! (Clamping from [x=-0,031835, y=5,762708])";"4";"/turtlesim2/sim";"1665521053.148570897";"/rosout,/turtlesim2/turtle1/color_sensor,/turtlesim2/turtle1/pose";"/tmp/binarydeb/ros-melodic-turtlesim-0.9.3/src/turtle.cpp:Turtle::update:169"
"Oh no! I hit the wall! (Clamping from [x=-0,031835, y=5,765954])";"4";"/turtlesim2/sim";"1665521053.132037165";"/rosout,/turtlesim2/turtle1/color_sensor,/turtlesim2/turtle1/pose";"/tmp/binarydeb/ros-melodic-turtlesim-0.9.3/src/turtle.cpp:Turtle::update:169"
"Oh no! I hit the wall! (Clamping from [x=-0,031835, y=5,769199])";"4";"/turtlesim2/sim";"1665521053.115556342";"/rosout,/turtlesim2/turtle1/color_sensor,/turtlesim2/turtle1/pose";"/tmp/binarydeb/ros-melodic-turtlesim-0.9.3/src/turtle.cpp:Turtle::update:169"
"Oh no! I hit the wall! (Clamping from [x=-0,031835, y=5,772444])";"4";"/turtlesim2/sim";"1665521053.099778255";"/rosout,/turtlesim2/turtle1/color_sensor,/turtlesim2/turtle1/pose";"/tmp/binarydeb/ros-melodic-turtlesim-0.9.3/src/turtle.cpp:Turtle::update:169"
"Oh no! I hit the wall! (Clamping from [x=-0,031835, y=5,775690])";"4";"/turtlesim2/sim";"1665521053.083718431";"/rosout,/turtlesim2/turtle1/color_sensor,/turtlesim2/turtle1/pose";"/tmp/binarydeb/ros-melodic-turtlesim-0.9.3/src/turtle.cpp:Turtle::update:169"
"Oh no! I hit the wall! (Clamping from [x=-0,031835, y=5,778935])";"4";"/turtlesim2/sim";"1665521053.067016534";"/rosout,/turtlesim2/turtle1/color_sensor,/turtlesim2/turtle1/pose";"/tmp/binarydeb/ros-melodic-turtlesim-0.9.3/src/turtle.cpp:Turtle::update:169"
"Oh no! I hit the wall! (Clamping from [x=-0,031835, y=5,782180])";"4";"/turtlesim2/sim";"1665521053.052616487";"/rosout,/turtlesim2/turtle1/color_sensor,/turtlesim2/turtle1/pose";"/tmp/binarydeb/ros-melodic-turtlesim-0.9.3/src/turtle.cpp:Turtle::update:169"
"Oh no! I hit the wall! (Clamping from [x=-0,031835, y=5,785426])";"4";"/turtlesim2/sim";"1665521053.035110655";"/rosout,/turtlesim2/turtle1/color_sensor,/turtlesim2/turtle1/pose";"/tmp/binarydeb/ros-melodic-turtlesim-0.9.3/src/turtle.cpp:Turtle::update:169"
"Oh no! I hit the wall! (Clamping from [x=-0,031835, y=5,788671])";"4";"/turtlesim2/sim";"1665521053.019269921";"/rosout,/turtlesim2/turtle1/color_sensor,/turtlesim2/turtle1/pose";"/tmp/binarydeb/ros-melodic-turtlesim-0.9.3/src/turtle.cpp:Turtle::update:169"
"Oh no! I hit the wall! (Clamping from [x=-0,031835, y=5,791917])";"4";"/turtlesim2/sim";"1665521053.005720948";"/rosout,/turtlesim2/turtle1/color_sensor,/turtlesim2/turtle1/pose";"/tmp/binarydeb/ros-melodic-turtlesim-0.9.3/src/turtle.cpp:Turtle::update:169"
"Oh no! I hit the wall! (Clamping from [x=-0,031835, y=5,795162])";"4";"/turtlesim2/sim";"1665521052.987714268";"/rosout,/turtlesim2/turtle1/color_sensor,/turtlesim2/turtle1/pose";"/tmp/binarydeb/ros-melodic-turtlesim-0.9.3/src/turtle.cpp:Turtle::update:169"
"Oh no! I hit the wall! (Clamping from [x=-0,031835, y=5,798407])";"4";"/turtlesim2/sim";"1665521052.971560437";"/rosout,/turtlesim2/turtle1/color_sensor,/turtlesim2/turtle1/pose";"/tmp/binarydeb/ros-melodic-turtlesim-0.9.3/src/turtle.cpp:Turtle::update:169"
"Oh no! I hit the wall! (Clamping from [x=-0,031835, y=5,801653])";"4";"/turtlesim2/sim";"1665521052.955046623";"/rosout,/turtlesim2/turtle1/color_sensor,/turtlesim2/turtle1/pose";"/tmp/binarydeb/ros-melodic-turtlesim-0.9.3/src/turtle.cpp:Turtle::update:169"
"Oh no! I hit the wall! (Clamping from [x=-0,031835, y=5,804898])";"4";"/turtlesim2/sim";"1665521052.941565337";"/rosout,/turtlesim2/turtle1/color_sensor,/turtlesim2/turtle1/pose";"/tmp/binarydeb/ros-melodic-turtlesim-0.9.3/src/turtle.cpp:Turtle::update:169"
"Oh no! I hit the wall! (Clamping from [x=-0,031835, y=5,808143])";"4";"/turtlesim2/sim";"1665521052.925996402";"/rosout,/turtlesim2/turtle1/color_sensor,/turtlesim2/turtle1/pose";"/tmp/binarydeb/ros-melodic-turtlesim-0.9.3/src/turtle.cpp:Turtle::update:169"
"Oh no! I hit the wall! (Clamping from [x=-0,031835, y=5,811389])";"4";"/turtlesim2/sim";"1665521052.907465339";"/rosout,/turtlesim2/turtle1/color_sensor,/turtlesim2/turtle1/pose";"/tmp/binarydeb/ros-melodic-turtlesim-0.9.3/src/turtle.cpp:Turtle::update:169"
"Oh no! I hit the wall! (Clamping from [x=-0,031835, y=5,814634])";"4";"/turtlesim2/sim";"1665521052.892565938";"/rosout,/turtlesim2/turtle1/color_sensor,/turtlesim2/turtle1/pose";"/tmp/binarydeb/ros-melodic-turtlesim-0.9.3/src/turtle.cpp:Turtle::update:169"
"Oh no! I hit the wall! (Clamping from [x=-0,031835, y=5,817880])";"4";"/turtlesim2/sim";"1665521052.875161265";"/rosout,/turtlesim2/turtle1/color_sensor,/turtlesim2/turtle1/pose";"/tmp/binarydeb/ros-melodic-turtlesim-0.9.3/src/turtle.cpp:Turtle::update:169"
"Oh no! I hit the wall! (Clamping from [x=-0,031835, y=5,821125])";"4";"/turtlesim2/sim";"1665521052.863972232";"/rosout,/turtlesim2/turtle1/color_sensor,/turtlesim2/turtle1/pose";"/tmp/binarydeb/ros-melodic-turtlesim-0.9.3/src/turtle.cpp:Turtle::update:169"
"Oh no! I hit the wall! (Clamping from [x=-0,031835, y=5,824370])";"4";"/turtlesim2/sim";"1665521052.844562524";"/rosout,/turtlesim2/turtle1/color_sensor,/turtlesim2/turtle1/pose";"/tmp/binarydeb/ros-melodic-turtlesim-0.9.3/src/turtle.cpp:Turtle::update:169"
"Oh no! I hit the wall! (Clamping from [x=-0,031835, y=5,827616])";"4";"/turtlesim2/sim";"1665521052.827420633";"/rosout,/turtlesim2/turtle1/color_sensor,/turtlesim2/turtle1/pose";"/tmp/binarydeb/ros-melodic-turtlesim-0.9.3/src/turtle.cpp:Turtle::update:169"
"Oh no! I hit the wall! (Clamping from [x=-0,031835, y=5,830861])";"4";"/turtlesim2/sim";"1665521052.812725444";"/rosout,/turtlesim2/turtle1/color_sensor,/turtlesim2/turtle1/pose";"/tmp/binarydeb/ros-melodic-turtlesim-0.9.3/src/turtle.cpp:Turtle::update:169"
"Oh no! I hit the wall! (Clamping from [x=-0,031835, y=5,834106])";"4";"/turtlesim2/sim";"1665521052.795672510";"/rosout,/turtlesim2/turtle1/color_sensor,/turtlesim2/turtle1/pose";"/tmp/binarydeb/ros-melodic-turtlesim-0.9.3/src/turtle.cpp:Turtle::update:169"
"Oh no! I hit the wall! (Clamping from [x=-0,031835, y=5,837352])";"4";"/turtlesim2/sim";"1665521052.778916662";"/rosout,/turtlesim2/turtle1/color_sensor,/turtlesim2/turtle1/pose";"/tmp/binarydeb/ros-melodic-turtlesim-0.9.3/src/turtle.cpp:Turtle::update:169"
"Oh no! I hit the wall! (Clamping from [x=-0,031835, y=5,840597])";"4";"/turtlesim2/sim";"1665521052.764044461";"/rosout,/turtlesim2/turtle1/color_sensor,/turtlesim2/turtle1/pose";"/tmp/binarydeb/ros-melodic-turtlesim-0.9.3/src/turtle.cpp:Turtle::update:169"
"Oh no! I hit the wall! (Clamping from [x=-0,031835, y=5,843843])";"4";"/turtlesim2/sim";"1665521052.747131169";"/rosout,/turtlesim2/turtle1/color_sensor,/turtlesim2/turtle1/pose";"/tmp/binarydeb/ros-melodic-turtlesim-0.9.3/src/turtle.cpp:Turtle::update:169"
"Oh no! I hit the wall! (Clamping from [x=-0,031835, y=5,847088])";"4";"/turtlesim2/sim";"1665521052.733266966";"/rosout,/turtlesim2/turtle1/color_sensor,/turtlesim2/turtle1/pose";"/tmp/binarydeb/ros-melodic-turtlesim-0.9.3/src/turtle.cpp:Turtle::update:169"
"Oh no! I hit the wall! (Clamping from [x=-0,031835, y=5,850333])";"4";"/turtlesim2/sim";"1665521052.716446697";"/rosout,/turtlesim2/turtle1/color_sensor,/turtlesim2/turtle1/pose";"/tmp/binarydeb/ros-melodic-turtlesim-0.9.3/src/turtle.cpp:Turtle::update:169"
"Oh no! I hit the wall! (Clamping from [x=-0,031835, y=5,853579])";"4";"/turtlesim2/sim";"1665521052.699596502";"/rosout,/turtlesim2/turtle1/color_sensor,/turtlesim2/turtle1/pose";"/tmp/binarydeb/ros-melodic-turtlesim-0.9.3/src/turtle.cpp:Turtle::update:169"
"Oh no! I hit the wall! (Clamping from [x=-0,031835, y=5,856824])";"4";"/turtlesim2/sim";"1665521052.684317160";"/rosout,/turtlesim2/turtle1/color_sensor,/turtlesim2/turtle1/pose";"/tmp/binarydeb/ros-melodic-turtlesim-0.9.3/src/turtle.cpp:Turtle::update:169"
"Oh no! I hit the wall! (Clamping from [x=-0,031835, y=5,860069])";"4";"/turtlesim2/sim";"1665521052.668034217";"/rosout,/turtlesim2/turtle1/color_sensor,/turtlesim2/turtle1/pose";"/tmp/binarydeb/ros-melodic-turtlesim-0.9.3/src/turtle.cpp:Turtle::update:169"
"Oh no! I hit the wall! (Clamping from [x=-0,031835, y=5,863315])";"4";"/turtlesim2/sim";"1665521052.650876266";"/rosout,/turtlesim2/turtle1/color_sensor,/turtlesim2/turtle1/pose";"/tmp/binarydeb/ros-melodic-turtlesim-0.9.3/src/turtle.cpp:Turtle::update:169"
"Oh no! I hit the wall! (Clamping from [x=-0,031835, y=5,866560])";"4";"/turtlesim2/sim";"1665521052.636215502";"/rosout,/turtlesim2/turtle1/color_sensor,/turtlesim2/turtle1/pose";"/tmp/binarydeb/ros-melodic-turtlesim-0.9.3/src/turtle.cpp:Turtle::update:169"
"Oh no! I hit the wall! (Clamping from [x=-0,031835, y=5,869806])";"4";"/turtlesim2/sim";"1665521052.619484390";"/rosout,/turtlesim2/turtle1/color_sensor,/turtlesim2/turtle1/pose";"/tmp/binarydeb/ros-melodic-turtlesim-0.9.3/src/turtle.cpp:Turtle::update:169"
"Oh no! I hit the wall! (Clamping from [x=-0,031835, y=5,873051])";"4";"/turtlesim2/sim";"1665521052.603127028";"/rosout,/turtlesim2/turtle1/color_sensor,/turtlesim2/turtle1/pose";"/tmp/binarydeb/ros-melodic-turtlesim-0.9.3/src/turtle.cpp:Turtle::update:169"
"Oh no! I hit the wall! (Clamping from [x=-0,031835, y=5,876296])";"4";"/turtlesim2/sim";"1665521052.588060093";"/rosout,/turtlesim2/turtle1/color_sensor,/turtlesim2/turtle1/pose";"/tmp/binarydeb/ros-melodic-turtlesim-0.9.3/src/turtle.cpp:Turtle::update:169"
"Oh no! I hit the wall! (Clamping from [x=-0,031835, y=5,879542])";"4";"/turtlesim2/sim";"1665521052.572629427";"/rosout,/turtlesim2/turtle1/color_sensor,/turtlesim2/turtle1/pose";"/tmp/binarydeb/ros-melodic-turtlesim-0.9.3/src/turtle.cpp:Turtle::update:169"
"Oh no! I hit the wall! (Clamping from [x=-0,031835, y=5,882787])";"4";"/turtlesim2/sim";"1665521052.555659117";"/rosout,/turtlesim2/turtle1/color_sensor,/turtlesim2/turtle1/pose";"/tmp/binarydeb/ros-melodic-turtlesim-0.9.3/src/turtle.cpp:Turtle::update:169"
"Oh no! I hit the wall! (Clamping from [x=-0,031835, y=5,886032])";"4";"/turtlesim2/sim";"1665521052.539718736";"/rosout,/turtlesim2/turtle1/color_sensor,/turtlesim2/turtle1/pose";"/tmp/binarydeb/ros-melodic-turtlesim-0.9.3/src/turtle.cpp:Turtle::update:169"
"Oh no! I hit the wall! (Clamping from [x=-0,031835, y=5,889278])";"4";"/turtlesim2/sim";"1665521052.524318266";"/rosout,/turtlesim2/turtle1/color_sensor,/turtlesim2/turtle1/pose";"/tmp/binarydeb/ros-melodic-turtlesim-0.9.3/src/turtle.cpp:Turtle::update:169"
"Oh no! I hit the wall! (Clamping from [x=-0,031835, y=5,892523])";"4";"/turtlesim2/sim";"1665521052.508674361";"/rosout,/turtlesim2/turtle1/color_sensor,/turtlesim2/turtle1/pose";"/tmp/binarydeb/ros-melodic-turtlesim-0.9.3/src/turtle.cpp:Turtle::update:169"
"Oh no! I hit the wall! (Clamping from [x=-0,031835, y=5,895769])";"4";"/turtlesim2/sim";"1665521052.491169400";"/rosout,/turtlesim2/turtle1/color_sensor,/turtlesim2/turtle1/pose";"/tmp/binarydeb/ros-melodic-turtlesim-0.9.3/src/turtle.cpp:Turtle::update:169"
"Oh no! I hit the wall! (Clamping from [x=-0,031835, y=5,899014])";"4";"/turtlesim2/sim";"1665521052.476412996";"/rosout,/turtlesim2/turtle1/color_sensor,/turtlesim2/turtle1/pose";"/tmp/binarydeb/ros-melodic-turtlesim-0.9.3/src/turtle.cpp:Turtle::update:169"
"Oh no! I hit the wall! (Clamping from [x=-0,031835, y=5,902259])";"4";"/turtlesim2/sim";"1665521052.459590113";"/rosout,/turtlesim2/turtle1/color_sensor,/turtlesim2/turtle1/pose";"/tmp/binarydeb/ros-melodic-turtlesim-0.9.3/src/turtle.cpp:Turtle::update:169"
"Oh no! I hit the wall! (Clamping from [x=-0,031835, y=5,905505])";"4";"/turtlesim2/sim";"1665521052.444434732";"/rosout,/turtlesim2/turtle1/color_sensor,/turtlesim2/turtle1/pose";"/tmp/binarydeb/ros-melodic-turtlesim-0.9.3/src/turtle.cpp:Turtle::update:169"
"Oh no! I hit the wall! (Clamping from [x=-0,031835, y=5,908750])";"4";"/turtlesim2/sim";"1665521052.428620858";"/rosout,/turtlesim2/turtle1/color_sensor,/turtlesim2/turtle1/pose";"/tmp/binarydeb/ros-melodic-turtlesim-0.9.3/src/turtle.cpp:Turtle::update:169"
"Oh no! I hit the wall! (Clamping from [x=-0,031835, y=5,911995])";"4";"/turtlesim2/sim";"1665521052.412096023";"/rosout,/turtlesim2/turtle1/color_sensor,/turtlesim2/turtle1/pose";"/tmp/binarydeb/ros-melodic-turtlesim-0.9.3/src/turtle.cpp:Turtle::update:169"
"Oh no! I hit the wall! (Clamping from [x=-0,031835, y=5,915241])";"4";"/turtlesim2/sim";"1665521052.394808109";"/rosout,/turtlesim2/turtle1/color_sensor,/turtlesim2/turtle1/pose";"/tmp/binarydeb/ros-melodic-turtlesim-0.9.3/src/turtle.cpp:Turtle::update:169"
"Oh no! I hit the wall! (Clamping from [x=-0,031835, y=5,918486])";"4";"/turtlesim2/sim";"1665521052.380900595";"/rosout,/turtlesim2/turtle1/color_sensor,/turtlesim2/turtle1/pose";"/tmp/binarydeb/ros-melodic-turtlesim-0.9.3/src/turtle.cpp:Turtle::update:169"
"Oh no! I hit the wall! (Clamping from [x=-0,031835, y=5,921732])";"4";"/turtlesim2/sim";"1665521052.364233803";"/rosout,/turtlesim2/turtle1/color_sensor,/turtlesim2/turtle1/pose";"/tmp/binarydeb/ros-melodic-turtlesim-0.9.3/src/turtle.cpp:Turtle::update:169"
"Oh no! I hit the wall! (Clamping from [x=-0,031835, y=5,924977])";"4";"/turtlesim2/sim";"1665521052.347375754";"/rosout,/turtlesim2/turtle1/color_sensor,/turtlesim2/turtle1/pose";"/tmp/binarydeb/ros-melodic-turtlesim-0.9.3/src/turtle.cpp:Turtle::update:169"
"Oh no! I hit the wall! (Clamping from [x=-0,031835, y=5,928222])";"4";"/turtlesim2/sim";"1665521052.331910934";"/rosout,/turtlesim2/turtle1/color_sensor,/turtlesim2/turtle1/pose";"/tmp/binarydeb/ros-melodic-turtlesim-0.9.3/src/turtle.cpp:Turtle::update:169"
"Oh no! I hit the wall! (Clamping from [x=-0,031835, y=5,931468])";"4";"/turtlesim2/sim";"1665521052.316468194";"/rosout,/turtlesim2/turtle1/color_sensor,/turtlesim2/turtle1/pose";"/tmp/binarydeb/ros-melodic-turtlesim-0.9.3/src/turtle.cpp:Turtle::update:169"
"Oh no! I hit the wall! (Clamping from [x=-0,031835, y=5,934713])";"4";"/turtlesim2/sim";"1665521052.301615481";"/rosout,/turtlesim2/turtle1/color_sensor,/turtlesim2/turtle1/pose";"/tmp/binarydeb/ros-melodic-turtlesim-0.9.3/src/turtle.cpp:Turtle::update:169"
"Oh no! I hit the wall! (Clamping from [x=-0,031835, y=5,937958])";"4";"/turtlesim2/sim";"1665521052.284328629";"/rosout,/turtlesim2/turtle1/color_sensor,/turtlesim2/turtle1/pose";"/tmp/binarydeb/ros-melodic-turtlesim-0.9.3/src/turtle.cpp:Turtle::update:169"
"Oh no! I hit the wall! (Clamping from [x=-0,031835, y=5,941204])";"4";"/turtlesim2/sim";"1665521052.269095983";"/rosout,/turtlesim2/turtle1/color_sensor,/turtlesim2/turtle1/pose";"/tmp/binarydeb/ros-melodic-turtlesim-0.9.3/src/turtle.cpp:Turtle::update:169"
"Oh no! I hit the wall! (Clamping from [x=-0,031835, y=5,944449])";"4";"/turtlesim2/sim";"1665521052.250794180";"/rosout,/turtlesim2/turtle1/color_sensor,/turtlesim2/turtle1/pose";"/tmp/binarydeb/ros-melodic-turtlesim-0.9.3/src/turtle.cpp:Turtle::update:169"
"Oh no! I hit the wall! (Clamping from [x=-0,031835, y=5,947695])";"4";"/turtlesim2/sim";"1665521052.235309062";"/rosout,/turtlesim2/turtle1/color_sensor,/turtlesim2/turtle1/pose";"/tmp/binarydeb/ros-melodic-turtlesim-0.9.3/src/turtle.cpp:Turtle::update:169"
"Oh no! I hit the wall! (Clamping from [x=-0,031835, y=5,950940])";"4";"/turtlesim2/sim";"1665521052.220096083";"/rosout,/turtlesim2/turtle1/color_sensor,/turtlesim2/turtle1/pose";"/tmp/binarydeb/ros-melodic-turtlesim-0.9.3/src/turtle.cpp:Turtle::update:169"
"Oh no! I hit the wall! (Clamping from [x=-0,031835, y=5,954185])";"4";"/turtlesim2/sim";"1665521052.204831237";"/rosout,/turtlesim2/turtle1/color_sensor,/turtlesim2/turtle1/pose";"/tmp/binarydeb/ros-melodic-turtlesim-0.9.3/src/turtle.cpp:Turtle::update:169"
"Oh no! I hit the wall! (Clamping from [x=-0,031835, y=5,957431])";"4";"/turtlesim2/sim";"1665521052.186975389";"/rosout,/turtlesim2/turtle1/color_sensor,/turtlesim2/turtle1/pose";"/tmp/binarydeb/ros-melodic-turtlesim-0.9.3/src/turtle.cpp:Turtle::update:169"
"Oh no! I hit the wall! (Clamping from [x=-0,031835, y=5,960676])";"4";"/turtlesim2/sim";"1665521052.171666161";"/rosout,/turtlesim2/turtle1/color_sensor,/turtlesim2/turtle1/pose";"/tmp/binarydeb/ros-melodic-turtlesim-0.9.3/src/turtle.cpp:Turtle::update:169"
"Oh no! I hit the wall! (Clamping from [x=11,097853, y=4,306946])";"4";"/turtlesim1/sim";"1665521037.655476618";"/rosout,/turtlesim1/turtle1/color_sensor,/turtlesim1/turtle1/pose";"/tmp/binarydeb/ros-melodic-turtlesim-0.9.3/src/turtle.cpp:Turtle::update:169"
"Oh no! I hit the wall! (Clamping from [x=11,097853, y=4,306946])";"4";"/turtlesim2/sim";"1665521037.643272865";"/rosout,/turtlesim2/turtle1/color_sensor,/turtlesim2/turtle1/pose";"/tmp/binarydeb/ros-melodic-turtlesim-0.9.3/src/turtle.cpp:Turtle::update:169"
"Oh no! I hit the wall! (Clamping from [x=11,097853, y=4,306946])";"4";"/turtlesim3/sim";"1665521037.628365539";"/rosout,/turtlesim3/turtle1/color_sensor,/turtlesim3/turtle1/pose";"/tmp/binarydeb/ros-melodic-turtlesim-0.9.3/src/turtle.cpp:Turtle::update:169"
"Oh no! I hit the wall! (Clamping from [x=11,115726, y=3,853777])";"4";"/turtlesim3/sim";"1665521038.045231625";"/rosout,/turtlesim3/turtle1/color_sensor,/turtlesim3/turtle1/pose";"/tmp/binarydeb/ros-melodic-turtlesim-0.9.3/src/turtle.cpp:Turtle::update:169"
"Oh no! I hit the wall! (Clamping from [x=11,115726, y=3,871207])";"4";"/turtlesim3/sim";"1665521038.028735433";"/rosout,/turtlesim3/turtle1/color_sensor,/turtlesim3/turtle1/pose";"/tmp/binarydeb/ros-melodic-turtlesim-0.9.3/src/turtle.cpp:Turtle::update:169"
"Oh no! I hit the wall! (Clamping from [x=11,115726, y=3,888636])";"4";"/turtlesim2/sim";"1665521038.027769203";"/rosout,/turtlesim2/turtle1/color_sensor,/turtlesim2/turtle1/pose";"/tmp/binarydeb/ros-melodic-turtlesim-0.9.3/src/turtle.cpp:Turtle::update:169"
"Oh no! I hit the wall! (Clamping from [x=11,115726, y=3,888636])";"4";"/turtlesim3/sim";"1665521038.014340186";"/rosout,/turtlesim3/turtle1/color_sensor,/turtlesim3/turtle1/pose";"/tmp/binarydeb/ros-melodic-turtlesim-0.9.3/src/turtle.cpp:Turtle::update:169"
"Oh no! I hit the wall! (Clamping from [x=11,115726, y=3,906066])";"4";"/turtlesim1/sim";"1665521038.021475748";"/rosout,/turtlesim1/turtle1/color_sensor,/turtlesim1/turtle1/pose";"/tmp/binarydeb/ros-melodic-turtlesim-0.9.3/src/turtle.cpp:Turtle::update:169"
"Oh no! I hit the wall! (Clamping from [x=11,115726, y=3,906066])";"4";"/turtlesim2/sim";"1665521038.011929421";"/rosout,/turtlesim2/turtle1/color_sensor,/turtlesim2/turtle1/pose";"/tmp/binarydeb/ros-melodic-turtlesim-0.9.3/src/turtle.cpp:Turtle::update:169"
"Oh no! I hit the wall! (Clamping from [x=11,115726, y=3,906066])";"4";"/turtlesim3/sim";"1665521037.996870481";"/rosout,/turtlesim3/turtle1/color_sensor,/turtlesim3/turtle1/pose";"/tmp/binarydeb/ros-melodic-turtlesim-0.9.3/src/turtle.cpp:Turtle::update:169"
"Oh no! I hit the wall! (Clamping from [x=11,115726, y=3,923496])";"4";"/turtlesim1/sim";"1665521038.005110963";"/rosout,/turtlesim1/turtle1/color_sensor,/turtlesim1/turtle1/pose";"/tmp/binarydeb/ros-melodic-turtlesim-0.9.3/src/turtle.cpp:Turtle::update:169"
"Oh no! I hit the wall! (Clamping from [x=11,115726, y=3,923496])";"4";"/turtlesim2/sim";"1665521037.996699571";"/rosout,/turtlesim2/turtle1/color_sensor,/turtlesim2/turtle1/pose";"/tmp/binarydeb/ros-melodic-turtlesim-0.9.3/src/turtle.cpp:Turtle::update:169"
"Oh no! I hit the wall! (Clamping from [x=11,115726, y=3,923496])";"4";"/turtlesim3/sim";"1665521037.980625570";"/rosout,/turtlesim3/turtle1/color_sensor,/turtlesim3/turtle1/pose";"/tmp/binarydeb/ros-melodic-turtlesim-0.9.3/src/turtle.cpp:Turtle::update:169"
"Oh no! I hit the wall! (Clamping from [x=11,115726, y=3,940925])";"4";"/turtlesim1/sim";"1665521037.989527851";"/rosout,/turtlesim1/turtle1/color_sensor,/turtlesim1/turtle1/pose";"/tmp/binarydeb/ros-melodic-turtlesim-0.9.3/src/turtle.cpp:Turtle::update:169"
"Oh no! I hit the wall! (Clamping from [x=11,115726, y=3,940925])";"4";"/turtlesim2/sim";"1665521037.979582577";"/rosout,/turtlesim2/turtle1/color_sensor,/turtlesim2/turtle1/pose";"/tmp/binarydeb/ros-melodic-turtlesim-0.9.3/src/turtle.cpp:Turtle::update:169"
"Oh no! I hit the wall! (Clamping from [x=11,115726, y=3,940925])";"4";"/turtlesim3/sim";"1665521037.964942311";"/rosout,/turtlesim3/turtle1/color_sensor,/turtlesim3/turtle1/pose";"/tmp/binarydeb/ros-melodic-turtlesim-0.9.3/src/turtle.cpp:Turtle::update:169"
"Oh no! I hit the wall! (Clamping from [x=11,115726, y=3,958355])";"4";"/turtlesim1/sim";"1665521037.974311035";"/rosout,/turtlesim1/turtle1/color_sensor,/turtlesim1/turtle1/pose";"/tmp/binarydeb/ros-melodic-turtlesim-0.9.3/src/turtle.cpp:Turtle::update:169"
"Oh no! I hit the wall! (Clamping from [x=11,115726, y=3,958355])";"4";"/turtlesim2/sim";"1665521037.963341363";"/rosout,/turtlesim2/turtle1/color_sensor,/turtlesim2/turtle1/pose";"/tmp/binarydeb/ros-melodic-turtlesim-0.9.3/src/turtle.cpp:Turtle::update:169"
"Oh no! I hit the wall! (Clamping from [x=11,115726, y=3,958355])";"4";"/turtlesim3/sim";"1665521037.949934476";"/rosout,/turtlesim3/turtle1/color_sensor,/turtlesim3/turtle1/pose";"/tmp/binarydeb/ros-melodic-turtlesim-0.9.3/src/turtle.cpp:Turtle::update:169"
"Oh no! I hit the wall! (Clamping from [x=11,115726, y=3,975784])";"4";"/turtlesim1/sim";"1665521037.960394765";"/rosout,/turtlesim1/turtle1/color_sensor,/turtlesim1/turtle1/pose";"/tmp/binarydeb/ros-melodic-turtlesim-0.9.3/src/turtle.cpp:Turtle::update:169"
"Oh no! I hit the wall! (Clamping from [x=11,115726, y=3,975784])";"4";"/turtlesim2/sim";"1665521037.948339810";"/rosout,/turtlesim2/turtle1/color_sensor,/turtlesim2/turtle1/pose";"/tmp/binarydeb/ros-melodic-turtlesim-0.9.3/src/turtle.cpp:Turtle::update:169"
"Oh no! I hit the wall! (Clamping from [x=11,115726, y=3,975784])";"4";"/turtlesim3/sim";"1665521037.933306478";"/rosout,/turtlesim3/turtle1/color_sensor,/turtlesim3/turtle1/pose";"/tmp/binarydeb/ros-melodic-turtlesim-0.9.3/src/turtle.cpp:Turtle::update:169"
"Oh no! I hit the wall! (Clamping from [x=11,115726, y=3,993214])";"4";"/turtlesim1/sim";"1665521037.941621990";"/rosout,/turtlesim1/turtle1/color_sensor,/turtlesim1/turtle1/pose";"/tmp/binarydeb/ros-melodic-turtlesim-0.9.3/src/turtle.cpp:Turtle::update:169"
"Oh no! I hit the wall! (Clamping from [x=11,115726, y=3,993214])";"4";"/turtlesim2/sim";"1665521037.932876633";"/rosout,/turtlesim2/turtle1/color_sensor,/turtlesim2/turtle1/pose";"/tmp/binarydeb/ros-melodic-turtlesim-0.9.3/src/turtle.cpp:Turtle::update:169"
"Oh no! I hit the wall! (Clamping from [x=11,115726, y=3,993214])";"4";"/turtlesim3/sim";"1665521037.916004968";"/rosout,/turtlesim3/turtle1/color_sensor,/turtlesim3/turtle1/pose";"/tmp/binarydeb/ros-melodic-turtlesim-0.9.3/src/turtle.cpp:Turtle::update:169"
"Oh no! I hit the wall! (Clamping from [x=11,115726, y=4,010643])";"4";"/turtlesim1/sim";"1665521037.925567966";"/rosout,/turtlesim1/turtle1/color_sensor,/turtlesim1/turtle1/pose";"/tmp/binarydeb/ros-melodic-turtlesim-0.9.3/src/turtle.cpp:Turtle::update:169"
"Oh no! I hit the wall! (Clamping from [x=11,115726, y=4,010643])";"4";"/turtlesim2/sim";"1665521037.914820089";"/rosout,/turtlesim2/turtle1/color_sensor,/turtlesim2/turtle1/pose";"/tmp/binarydeb/ros-melodic-turtlesim-0.9.3/src/turtle.cpp:Turtle::update:169"
"Oh no! I hit the wall! (Clamping from [x=11,115726, y=4,010643])";"4";"/turtlesim3/sim";"1665521037.901864047";"/rosout,/turtlesim3/turtle1/color_sensor,/turtlesim3/turtle1/pose";"/tmp/binarydeb/ros-melodic-turtlesim-0.9.3/src/turtle.cpp:Turtle::update:169"
"Oh no! I hit the wall! (Clamping from [x=11,115726, y=4,028073])";"4";"/turtlesim1/sim";"1665521037.908708354";"/rosout,/turtlesim1/turtle1/color_sensor,/turtlesim1/turtle1/pose";"/tmp/binarydeb/ros-melodic-turtlesim-0.9.3/src/turtle.cpp:Turtle::update:169"
"Oh no! I hit the wall! (Clamping from [x=11,115726, y=4,028073])";"4";"/turtlesim2/sim";"1665521037.900650725";"/rosout,/turtlesim2/turtle1/color_sensor,/turtlesim2/turtle1/pose";"/tmp/binarydeb/ros-melodic-turtlesim-0.9.3/src/turtle.cpp:Turtle::update:169"
"Oh no! I hit the wall! (Clamping from [x=11,115726, y=4,028073])";"4";"/turtlesim3/sim";"1665521037.884649159";"/rosout,/turtlesim3/turtle1/color_sensor,/turtlesim3/turtle1/pose";"/tmp/binarydeb/ros-melodic-turtlesim-0.9.3/src/turtle.cpp:Turtle::update:169"
"Oh no! I hit the wall! (Clamping from [x=11,115726, y=4,045503])";"4";"/turtlesim1/sim";"1665521037.895037573";"/rosout,/turtlesim1/turtle1/color_sensor,/turtlesim1/turtle1/pose";"/tmp/binarydeb/ros-melodic-turtlesim-0.9.3/src/turtle.cpp:Turtle::update:169"
"Oh no! I hit the wall! (Clamping from [x=11,115726, y=4,045503])";"4";"/turtlesim2/sim";"1665521037.883641623";"/rosout,/turtlesim2/turtle1/color_sensor,/turtlesim2/turtle1/pose";"/tmp/binarydeb/ros-melodic-turtlesim-0.9.3/src/turtle.cpp:Turtle::update:169"
"Oh no! I hit the wall! (Clamping from [x=11,115726, y=4,045503])";"4";"/turtlesim3/sim";"1665521037.868922128";"/rosout,/turtlesim3/turtle1/color_sensor,/turtlesim3/turtle1/pose";"/tmp/binarydeb/ros-melodic-turtlesim-0.9.3/src/turtle.cpp:Turtle::update:169"
"Oh no! I hit the wall! (Clamping from [x=11,115726, y=4,062932])";"4";"/turtlesim1/sim";"1665521037.877437604";"/rosout,/turtlesim1/turtle1/color_sensor,/turtlesim1/turtle1/pose";"/tmp/binarydeb/ros-melodic-turtlesim-0.9.3/src/turtle.cpp:Turtle::update:169"
"Oh no! I hit the wall! (Clamping from [x=11,115726, y=4,062932])";"4";"/turtlesim2/sim";"1665521037.868577493";"/rosout,/turtlesim2/turtle1/color_sensor,/turtlesim2/turtle1/pose";"/tmp/binarydeb/ros-melodic-turtlesim-0.9.3/src/turtle.cpp:Turtle::update:169"
"Oh no! I hit the wall! (Clamping from [x=11,115726, y=4,062932])";"4";"/turtlesim3/sim";"1665521037.855054759";"/rosout,/turtlesim3/turtle1/color_sensor,/turtlesim3/turtle1/pose";"/tmp/binarydeb/ros-melodic-turtlesim-0.9.3/src/turtle.cpp:Turtle::update:169"
"Oh no! I hit the wall! (Clamping from [x=11,115726, y=4,080362])";"4";"/turtlesim1/sim";"1665521037.861141958";"/rosout,/turtlesim1/turtle1/color_sensor,/turtlesim1/turtle1/pose";"/tmp/binarydeb/ros-melodic-turtlesim-0.9.3/src/turtle.cpp:Turtle::update:169"
"Oh no! I hit the wall! (Clamping from [x=11,115726, y=4,080362])";"4";"/turtlesim2/sim";"1665521037.853331472";"/rosout,/turtlesim2/turtle1/color_sensor,/turtlesim2/turtle1/pose";"/tmp/binarydeb/ros-melodic-turtlesim-0.9.3/src/turtle.cpp:Turtle::update:169"
"Oh no! I hit the wall! (Clamping from [x=11,115726, y=4,080362])";"4";"/turtlesim3/sim";"1665521037.836852543";"/rosout,/turtlesim3/turtle1/color_sensor,/turtlesim3/turtle1/pose";"/tmp/binarydeb/ros-melodic-turtlesim-0.9.3/src/turtle.cpp:Turtle::update:169"
"Oh no! I hit the wall! (Clamping from [x=11,115726, y=4,097791])";"4";"/turtlesim1/sim";"1665521037.845941503";"/rosout,/turtlesim1/turtle1/color_sensor,/turtlesim1/turtle1/pose";"/tmp/binarydeb/ros-melodic-turtlesim-0.9.3/src/turtle.cpp:Turtle::update:169"
"Oh no! I hit the wall! (Clamping from [x=11,115726, y=4,097791])";"4";"/turtlesim2/sim";"1665521037.835356501";"/rosout,/turtlesim2/turtle1/color_sensor,/turtlesim2/turtle1/pose";"/tmp/binarydeb/ros-melodic-turtlesim-0.9.3/src/turtle.cpp:Turtle::update:169"
"Oh no! I hit the wall! (Clamping from [x=11,115726, y=4,097791])";"4";"/turtlesim3/sim";"1665521037.821070008";"/rosout,/turtlesim3/turtle1/color_sensor,/turtlesim3/turtle1/pose";"/tmp/binarydeb/ros-melodic-turtlesim-0.9.3/src/turtle.cpp:Turtle::update:169"
"Oh no! I hit the wall! (Clamping from [x=11,115726, y=4,115221])";"4";"/turtlesim1/sim";"1665521037.828752725";"/rosout,/turtlesim1/turtle1/color_sensor,/turtlesim1/turtle1/pose";"/tmp/binarydeb/ros-melodic-turtlesim-0.9.3/src/turtle.cpp:Turtle::update:169"
"Oh no! I hit the wall! (Clamping from [x=11,115726, y=4,115221])";"4";"/turtlesim2/sim";"1665521037.820229133";"/rosout,/turtlesim2/turtle1/color_sensor,/turtlesim2/turtle1/pose";"/tmp/binarydeb/ros-melodic-turtlesim-0.9.3/src/turtle.cpp:Turtle::update:169"
"Oh no! I hit the wall! (Clamping from [x=11,115726, y=4,115221])";"4";"/turtlesim3/sim";"1665521037.805654880";"/rosout,/turtlesim3/turtle1/color_sensor,/turtlesim3/turtle1/pose";"/tmp/binarydeb/ros-melodic-turtlesim-0.9.3/src/turtle.cpp:Turtle::update:169"
"Oh no! I hit the wall! (Clamping from [x=11,115726, y=4,132650])";"4";"/turtlesim1/sim";"1665521037.813690889";"/rosout,/turtlesim1/turtle1/color_sensor,/turtlesim1/turtle1/pose";"/tmp/binarydeb/ros-melodic-turtlesim-0.9.3/src/turtle.cpp:Turtle::update:169"
"Oh no! I hit the wall! (Clamping from [x=11,115726, y=4,132650])";"4";"/turtlesim2/sim";"1665521037.805651133";"/rosout,/turtlesim2/turtle1/color_sensor,/turtlesim2/turtle1/pose";"/tmp/binarydeb/ros-melodic-turtlesim-0.9.3/src/turtle.cpp:Turtle::update:169"
"Oh no! I hit the wall! (Clamping from [x=11,115726, y=4,132650])";"4";"/turtlesim3/sim";"1665521037.791409914";"/rosout,/turtlesim3/turtle1/color_sensor,/turtlesim3/turtle1/pose";"/tmp/binarydeb/ros-melodic-turtlesim-0.9.3/src/turtle.cpp:Turtle::update:169"
"Oh no! I hit the wall! (Clamping from [x=11,115726, y=4,150080])";"4";"/turtlesim1/sim";"1665521037.797778100";"/rosout,/turtlesim1/turtle1/color_sensor,/turtlesim1/turtle1/pose";"/tmp/binarydeb/ros-melodic-turtlesim-0.9.3/src/turtle.cpp:Turtle::update:169"
"Oh no! I hit the wall! (Clamping from [x=11,115726, y=4,150080])";"4";"/turtlesim2/sim";"1665521037.787742997";"/rosout,/turtlesim2/turtle1/color_sensor,/turtlesim2/turtle1/pose";"/tmp/binarydeb/ros-melodic-turtlesim-0.9.3/src/turtle.cpp:Turtle::update:169"
"Oh no! I hit the wall! (Clamping from [x=11,115726, y=4,150080])";"4";"/turtlesim3/sim";"1665521037.774065074";"/rosout,/turtlesim3/turtle1/color_sensor,/turtlesim3/turtle1/pose";"/tmp/binarydeb/ros-melodic-turtlesim-0.9.3/src/turtle.cpp:Turtle::update:169"
"Oh no! I hit the wall! (Clamping from [x=11,115726, y=4,167509])";"4";"/turtlesim1/sim";"1665521037.781337282";"/rosout,/turtlesim1/turtle1/color_sensor,/turtlesim1/turtle1/pose";"/tmp/binarydeb/ros-melodic-turtlesim-0.9.3/src/turtle.cpp:Turtle::update:169"
"Oh no! I hit the wall! (Clamping from [x=11,115726, y=4,167509])";"4";"/turtlesim2/sim";"1665521037.771631396";"/rosout,/turtlesim2/turtle1/color_sensor,/turtlesim2/turtle1/pose";"/tmp/binarydeb/ros-melodic-turtlesim-0.9.3/src/turtle.cpp:Turtle::update:169"
"Oh no! I hit the wall! (Clamping from [x=11,115726, y=4,167509])";"4";"/turtlesim3/sim";"1665521037.757722209";"/rosout,/turtlesim3/turtle1/color_sensor,/turtlesim3/turtle1/pose";"/tmp/binarydeb/ros-melodic-turtlesim-0.9.3/src/turtle.cpp:Turtle::update:169"
"Oh no! I hit the wall! (Clamping from [x=11,115726, y=4,184939])";"4";"/turtlesim1/sim";"1665521037.766961872";"/rosout,/turtlesim1/turtle1/color_sensor,/turtlesim1/turtle1/pose";"/tmp/binarydeb/ros-melodic-turtlesim-0.9.3/src/turtle.cpp:Turtle::update:169"
"Oh no! I hit the wall! (Clamping from [x=11,115726, y=4,184939])";"4";"/turtlesim2/sim";"1665521037.755990436";"/rosout,/turtlesim2/turtle1/color_sensor,/turtlesim2/turtle1/pose";"/tmp/binarydeb/ros-melodic-turtlesim-0.9.3/src/turtle.cpp:Turtle::update:169"
"Oh no! I hit the wall! (Clamping from [x=11,115726, y=4,184939])";"4";"/turtlesim3/sim";"1665521037.740441258";"/rosout,/turtlesim3/turtle1/color_sensor,/turtlesim3/turtle1/pose";"/tmp/binarydeb/ros-melodic-turtlesim-0.9.3/src/turtle.cpp:Turtle::update:169"
"Oh no! I hit the wall! (Clamping from [x=11,115726, y=4,202369])";"4";"/turtlesim1/sim";"1665521037.749243021";"/rosout,/turtlesim1/turtle1/color_sensor,/turtlesim1/turtle1/pose";"/tmp/binarydeb/ros-melodic-turtlesim-0.9.3/src/turtle.cpp:Turtle::update:169"
"Oh no! I hit the wall! (Clamping from [x=11,115726, y=4,202369])";"4";"/turtlesim2/sim";"1665521037.739122458";"/rosout,/turtlesim2/turtle1/color_sensor,/turtlesim2/turtle1/pose";"/tmp/binarydeb/ros-melodic-turtlesim-0.9.3/src/turtle.cpp:Turtle::update:169"
"Oh no! I hit the wall! (Clamping from [x=11,115726, y=4,202369])";"4";"/turtlesim3/sim";"1665521037.725436599";"/rosout,/turtlesim3/turtle1/color_sensor,/turtlesim3/turtle1/pose";"/tmp/binarydeb/ros-melodic-turtlesim-0.9.3/src/turtle.cpp:Turtle::update:169"
"Oh no! I hit the wall! (Clamping from [x=11,115726, y=4,219798])";"4";"/turtlesim1/sim";"1665521037.733019189";"/rosout,/turtlesim1/turtle1/color_sensor,/turtlesim1/turtle1/pose";"/tmp/binarydeb/ros-melodic-turtlesim-0.9.3/src/turtle.cpp:Turtle::update:169"
"Oh no! I hit the wall! (Clamping from [x=11,115726, y=4,219798])";"4";"/turtlesim2/sim";"1665521037.724104074";"/rosout,/turtlesim2/turtle1/color_sensor,/turtlesim2/turtle1/pose";"/tmp/binarydeb/ros-melodic-turtlesim-0.9.3/src/turtle.cpp:Turtle::update:169"
"Oh no! I hit the wall! (Clamping from [x=11,115726, y=4,219798])";"4";"/turtlesim3/sim";"1665521037.709580707";"/rosout,/turtlesim3/turtle1/color_sensor,/turtlesim3/turtle1/pose";"/tmp/binarydeb/ros-melodic-turtlesim-0.9.3/src/turtle.cpp:Turtle::update:169"
"Oh no! I hit the wall! (Clamping from [x=11,115726, y=4,237228])";"4";"/turtlesim1/sim";"1665521037.718267063";"/rosout,/turtlesim1/turtle1/color_sensor,/turtlesim1/turtle1/pose";"/tmp/binarydeb/ros-melodic-turtlesim-0.9.3/src/turtle.cpp:Turtle::update:169"
"Oh no! I hit the wall! (Clamping from [x=11,115726, y=4,237228])";"4";"/turtlesim2/sim";"1665521037.708514270";"/rosout,/turtlesim2/turtle1/color_sensor,/turtlesim2/turtle1/pose";"/tmp/binarydeb/ros-melodic-turtlesim-0.9.3/src/turtle.cpp:Turtle::update:169"
"Oh no! I hit the wall! (Clamping from [x=11,115726, y=4,237228])";"4";"/turtlesim3/sim";"1665521037.693324685";"/rosout,/turtlesim3/turtle1/color_sensor,/turtlesim3/turtle1/pose";"/tmp/binarydeb/ros-melodic-turtlesim-0.9.3/src/turtle.cpp:Turtle::update:169"
"Oh no! I hit the wall! (Clamping from [x=11,115726, y=4,254657])";"4";"/turtlesim1/sim";"1665521037.701627513";"/rosout,/turtlesim1/turtle1/color_sensor,/turtlesim1/turtle1/pose";"/tmp/binarydeb/ros-melodic-turtlesim-0.9.3/src/turtle.cpp:Turtle::update:169"
"Oh no! I hit the wall! (Clamping from [x=11,115726, y=4,254657])";"4";"/turtlesim2/sim";"1665521037.692910018";"/rosout,/turtlesim2/turtle1/color_sensor,/turtlesim2/turtle1/pose";"/tmp/binarydeb/ros-melodic-turtlesim-0.9.3/src/turtle.cpp:Turtle::update:169"
"Oh no! I hit the wall! (Clamping from [x=11,115726, y=4,254657])";"4";"/turtlesim3/sim";"1665521037.677027516";"/rosout,/turtlesim3/turtle1/color_sensor,/turtlesim3/turtle1/pose";"/tmp/binarydeb/ros-melodic-turtlesim-0.9.3/src/turtle.cpp:Turtle::update:169"
"Oh no! I hit the wall! (Clamping from [x=11,115726, y=4,272087])";"4";"/turtlesim1/sim";"1665521037.685181385";"/rosout,/turtlesim1/turtle1/color_sensor,/turtlesim1/turtle1/pose";"/tmp/binarydeb/ros-melodic-turtlesim-0.9.3/src/turtle.cpp:Turtle::update:169"
"Oh no! I hit the wall! (Clamping from [x=11,115726, y=4,272087])";"4";"/turtlesim2/sim";"1665521037.676285587";"/rosout,/turtlesim2/turtle1/color_sensor,/turtlesim2/turtle1/pose";"/tmp/binarydeb/ros-melodic-turtlesim-0.9.3/src/turtle.cpp:Turtle::update:169"
"Oh no! I hit the wall! (Clamping from [x=11,115726, y=4,272087])";"4";"/turtlesim3/sim";"1665521037.662494731";"/rosout,/turtlesim3/turtle1/color_sensor,/turtlesim3/turtle1/pose";"/tmp/binarydeb/ros-melodic-turtlesim-0.9.3/src/turtle.cpp:Turtle::update:169"
"Oh no! I hit the wall! (Clamping from [x=11,115726, y=4,289516])";"4";"/turtlesim1/sim";"1665521037.669023097";"/rosout,/turtlesim1/turtle1/color_sensor,/turtlesim1/turtle1/pose";"/tmp/binarydeb/ros-melodic-turtlesim-0.9.3/src/turtle.cpp:Turtle::update:169"
"Oh no! I hit the wall! (Clamping from [x=11,115726, y=4,289516])";"4";"/turtlesim2/sim";"1665521037.659988538";"/rosout,/turtlesim2/turtle1/color_sensor,/turtlesim2/turtle1/pose";"/tmp/binarydeb/ros-melodic-turtlesim-0.9.3/src/turtle.cpp:Turtle::update:169"
"Oh no! I hit the wall! (Clamping from [x=11,115726, y=4,289516])";"4";"/turtlesim3/sim";"1665521037.644597025";"/rosout,/turtlesim3/turtle1/color_sensor,/turtlesim3/turtle1/pose";"/tmp/binarydeb/ros-melodic-turtlesim-0.9.3/src/turtle.cpp:Turtle::update:169"
"Spawning turtle [turtle1] at x=[5,544445], y=[5,544445], theta=[0,000000]";"2";"/turtlesim2/sim";"1665521020.425606617";"/rosout,/turtlesim2/turtle1/color_sensor,/turtlesim2/turtle1/pose";"/tmp/binarydeb/ros-melodic-turtlesim-0.9.3/src/turtle_frame.cpp:__cxx11::string turtlesim::TurtleFrame::spawnTurtle:196"
"Spawning turtle [turtle1] at x=[5,544445], y=[5,544445], theta=[0,000000]";"2";"/turtlesim3/sim";"1665521020.436943597";"/rosout,/turtlesim3/turtle1/color_sensor,/turtlesim3/turtle1/pose";"/tmp/binarydeb/ros-melodic-turtlesim-0.9.3/src/turtle_frame.cpp:__cxx11::string turtlesim::TurtleFrame::spawnTurtle:196"
"Spawning turtle [turtle1] at x=[5,544445], y=[5,544445], theta=[0,000000]";"2";"/turtlesim1/sim";"1665521020.425168146";"/rosout,/turtlesim1/turtle1/color_sensor,/turtlesim1/turtle1/pose";"/tmp/binarydeb/ros-melodic-turtlesim-0.9.3/src/turtle_frame.cpp:__cxx11::string turtlesim::TurtleFrame::spawnTurtle:196"
