<?xml version="1.0"?>
<robot xmlns:xacro="http://www.ros.org/wiki/xacro" name="viktor">

    
<!--materials-->
    
 <material name="green">
    <color rgba="0.3 0.69 0.49 1"/>
  </material>

  <material name="white">
    <color rgba="1 1 1 1"/>
  </material>
  
   <material name="collision_material_wheels">
    <color rgba="1 0.25 0.67 1"/>
  </material>
  <material name="collision_material_body">
    <color rgba="0.22 0.25 0.67 1"/>
  </material>

    
    <!--main_body-->
<!-- HERE_constant_main_body -->
<xacro:property name="height_val" value="0.2" />
<xacro:property name="radius_val" value="0.2" />
<xacro:property name="inertia_val" value="0.2" />

  
  <link name="base_link">
    <visual>
      <geometry>
        <cylinder length="${height_val}" radius="${radius_val}"/>
      </geometry>
        <origin rpy="0 0 0" xyz="0 0 0.1"/>
        <material name="green"/>
    </visual>

    <!--collision_moment-->
    <collision>
      <geometry>
        <cylinder length="${height_val}" radius="${radius_val}"/>
      </geometry>
      <origin rpy="0 0 0" xyz="0 0 0.1"/>
      <material name="collision_material_body"/>
    </collision>
    <inertial>
      <mass value="2"/>
      <inertia ixx="${inertia_val}" ixy="0.0" ixz="0.0" iyy="${inertia_val}" iyz="0.0" izz="${inertia_val}"/>
    </inertial>
  </link>
  <!-- gazebo_1_macros-->
    <gazebo reference="base_link">
      <mu1 value="200.0"/>
      <mu2 value="100.0"/>
      <kp value="10000000.0" />
      <kd value="1.0" />
      <material>Gazebo/Grey</material>
    </gazebo>
  
  
    <!--Shpere here-->
  
  <xacro:property name="sphere_mass" value="0.4" />
 <xacro:property name="sphere_radius" value="0.1" />
  
  <link name="front_sphere">
    <visual>
      <geometry>
        <sphere radius="${sphere_radius}"/>
      </geometry>
      <origin rpy="0 0 0" xyz="0 0 0"/>
      <material name="white"/>
    </visual>
    
    

    <!--collision_moment-->
    <collision>
      <geometry>
        <sphere  radius="${sphere_radius}"/>
      </geometry>
       <origin rpy="0 0 0" xyz="0 0 0"/>
       <material name="collision_material_wheels"/>
    </collision>
    <inertial>
      <mass value="${sphere_mass}"/>
      <inertia ixx="${inertia_val}" ixy="0.0" ixz="0.0" iyy="${inertia_val}" iyz="0.0" izz="${inertia_val}"/>
    </inertial>
  </link>
  
  <!--joit_sphere_here_just_for_check -->
  <joint name="base_to_front_sphere" type="continuous">
   <axis xyz="-1 0 0"/>
   <limit effort="1000.0" velocity="0.5"/>
    <parent link="base_link"/>
    <child link="front_sphere"/>
     <origin  xyz= "0 0.2 0" /> 
<!--      <limit effort="30" velocity="1.0"/> -->
   </joint> 
  
  
  <!-- gazebo_1_sphere -->
    <gazebo reference="base_link">
      <mu1 value="200.0"/>
      <mu2 value="100.0"/>
      <kp value="10000000.0" />
      <kd value="1.0" />
      <material>Gazebo/Yellow</material>
    </gazebo>
   
    <!-- gazebo_2_macros-->
   <transmission name="$sphere_trans">
      <type>transmission_interface/SimpleTransmission</type>
      <actuator name="$sphere_motor">
        <mechanicalReduction>1</mechanicalReduction>
      </actuator>
      <joint name="base_to_front_sphere">
        <hardwareInterface>VelocityJointInterface</hardwareInterface>
      </joint>
    </transmission>

  

  <!--LETS MAKE MAKROS FOR WHEELS-->
  
  <!-- HERE_constant_wheels -->
  <xacro:property name="height_wheel" value="0.05" />
  <xacro:property name="radius_wheel" value="0.1" />
  <xacro:property name="mass_wheel" value="0.2" />
  <xacro:property name="inertia_wheel" value="0.2" />
  
  <xacro:macro name="wheel" params="prefix reflect">
   <link name="${prefix}_wheel">
    <visual>
        <geometry>
           <cylinder length="${height_wheel}" radius="${radius_wheel}"/>
        </geometry>
      <origin rpy="0 ${pi/2} 0" xyz="0 0 0"/>
      <material name="white"/>
    </visual>
      <collision>
      <geometry>
        <cylinder length="${height_wheel}" radius="${radius_wheel}"/>
      </geometry>
       <origin rpy="0 ${pi/2} 0" xyz="0 0 0"/>
       <material name="collision_material_wheels"/>
    </collision>
    <inertial>
      <mass value="${mass_wheel}"/>
      <inertia ixx="${inertia_wheel}" ixy="0.0" ixz="0.0" iyy="${inertia_wheel}" iyz="0.0" izz="${inertia_wheel}"/>
    </inertial>
   </link>
    
  
   <joint name="base_to_${prefix}_wheel" type="continuous">
   <axis xyz="-1 0 0"/>
   <limit effort="1000.0" velocity="0.5"/>
   <parent link="base_link"/>
   <child link="${prefix}_wheel"/>
   <origin  xyz= "${reflect*(radius_val+.025)} 0 0" /> 
   </joint> 

<!-- gazebo_1_macros-->
    <gazebo reference="${prefix}_wheel">
      <mu1 value="200.0"/>
      <mu2 value="100.0"/>
      <kp value="10000000.0" />
      <kd value="1.0" />
      <material>Gazebo/Green</material>
    </gazebo>
   
   <!-- gazebo_2_macros-->
   <transmission name="${prefix}_wheel_trans">
      <type>transmission_interface/SimpleTransmission</type>
      <actuator name="${prefix}_wheel_motor">
        <mechanicalReduction>1</mechanicalReduction>
      </actuator>
      <joint name="base_to_${prefix}_wheel">
        <hardwareInterface>VelocityJointInterface</hardwareInterface>
      </joint>
    </transmission>
   

</xacro:macro>
<xacro:wheel prefix="right" reflect ="1" />
<xacro:wheel prefix="left"  reflect ="-1"/>
<!--end_of_macros-->

<!-- gazebo_plugin -->
 <gazebo>
    <plugin name="gazebo_ros_control" filename="libgazebo_ros_control.so">
      <robotNamespace>/</robotNamespace>
    </plugin>
    
  </gazebo>
   
</robot>
